Location,Name,Frequency,Duplex,Offset,Tone,rToneFreq,cToneFreq,DtcsCode,DtcsPolarity,RxDtcsCode,CrossMode,Mode,TStep,Skip,Comment,URCALL,RPT1CALL,RPT2CALL,DVCODE
00,Giesshuebel,145.5875,-,0.6,,88.5,88.5,023,NN,023,Tone->Tone,FM,5,,Gießhübel 2m,,,,
01,Lichtenberg,145.6,-,0.6,,88.5,88.5,023,NN,023,Tone->Tone,FM,5,,Lichtenberg 2m,,,,
02,Schoeckl,145.6,-,0.6,Tone,103.5,103.5,023,NN,023,Tone->Tone,FM,5,,Schöckl 2m,,,,
03,Patscherkofel,145.6125,-,0.6,Tone,88.5,77.0,023,NN,023,Tone->Tone,FM,5,,Patscherkofel 2m,,,,
04,Speiereck,145.6125,-,0.6,,88.5,88.5,023,NN,023,Tone->Tone,FM,5,,Speiereck 2m,,,,
05,Laaerberg Turm,145.625,-,0.6,,88.5,88.5,023,NN,023,Tone->Tone,FM,5,,Laaerberg Turm 2m,,,,
06,Magdalensberg,145.625,-,0.6,Tone,88.5,88.5,023,NN,023,Tone->Tone,FM,5,,Magdalensberg 2m,,,,
07,Nebelstein,145.6375,-,0.6,,88.5,88.5,023,NN,023,Tone->Tone,FM,5,,Nebelstein 2m,,,,
08,Goldeck,145.65,-,0.6,Tone,88.5,88.5,023,NN,023,Tone->Tone,FM,5,,Goldeck 2m,,,,
09,Goldeck,145.65,-,0.6,,88.5,88.5,023,NN,023,Tone->Tone,FM,5,,Goldeck 2m,,,,
10,Kaiserkogel,145.65,-,0.6,,88.5,88.5,023,NN,023,Tone->Tone,FM,5,,Kaiserkogel 2m,,,,
11,Kitzsteinhorn,145.65,-,0.6,Tone,88.5,88.5,023,NN,023,Tone->Tone,FM,5,,Kitzsteinhorn 2m,,,,
12,Rennfeld,145.65,-,0.6,Tone,88.5,103.5,023,NN,023,Tone->Tone,FM,5,,Rennfeld 2m,,,,
13,Vorderaelpele,145.65,-,0.6,,88.5,88.5,023,NN,023,Tone->Tone,FM,5,,Vorderälpele 2m,,,,
14,Gruenberg bei Silz,145.6625,-,0.6,,88.5,88.5,023,NN,023,Tone->Tone,FM,5,,Grünberg bei Silz 2m,,,,
15,Bruckerberg,145.675,-,0.6,,88.5,88.5,023,NN,023,Tone->Tone,FM,5,,Bruckerberg 2m,,,,
16,Planai,145.675,-,0.6,,88.5,88.5,023,NN,023,Tone->Tone,FM,5,,Planai 2m,,,,
17,Gaisberg,145.6875,-,0.6,Tone,88.5,88.5,023,NN,023,Tone->Tone,FM,5,,Gaisberg 2m,,,,
18,Valluga,145.6875,-,0.6,Tone,88.5,77.0,023,NN,023,Tone->Tone,FM,5,,Valluga 2m,,,,
19,Hahnenkamm,145.7,-,0.6,,88.5,88.5,023,NN,023,Tone->Tone,FM,5,,Hahnenkamm 2m,,,,
20,Hochstein,145.7,-,0.6,,88.5,88.5,023,NN,023,Tone->Tone,FM,5,,Hochstein 2m,,,,
21,Klosterneuburgerhuette,145.7,-,0.6,,88.5,88.5,023,NN,023,Tone->Tone,FM,5,,Klosterneuburgerhütte 2m,,,,
22,Sandl,145.7,-,0.6,Tone,88.5,162.2,023,NN,023,Tone->Tone,FM,5,,Sandl 2m,,,,
23,Krippenstein,145.7125,-,0.6,,88.5,88.5,023,NN,023,Tone->Tone,FM,5,,Krippenstein 2m,,,,
24,Hohe Wand,145.725,-,0.6,,88.5,88.5,023,NN,023,Tone->Tone,FM,5,,Hohe Wand 2m,,,,
25,Petzen,145.7375,-,0.6,Tone,88.5,88.5,023,NN,023,Tone->Tone,FM,5,,Petzen 2m,,,,
26,Exelberg,145.75,-,0.6,Tone,88.5,162.2,023,NN,023,Tone->Tone,FM,5,,Exelberg 2m,,,,
27,Gruenberg,145.75,-,0.6,Tone,123.0,123.0,023,NN,023,Tone->Tone,FM,5,,Grünberg 2m,,,,
28,Penkenjoch,145.75,-,0.6,,88.5,88.5,023,NN,023,Tone->Tone,FM,5,,Penkenjoch 2m,,,,
29,Gerlitzen,145.7625,-,0.6,,88.5,88.5,023,NN,023,Tone->Tone,FM,5,,Gerlitzen 2m,,,,
30,Gernkogel,145.7625,-,0.6,Tone,88.5,88.5,023,NN,023,Tone->Tone,FM,5,,Gernkogel 2m,,,,
31,Krahberg,145.7625,-,0.6,Tone,88.5,77.0,023,NN,023,Tone->Tone,FM,5,,Krahberg 2m,,,,
32,Brentenriegel,145.775,-,0.6,Tone,88.5,97.4,023,NN,023,Tone->Tone,FM,5,,Brentenriegel 2m,,,,
33,Geiersberg,145.775,-,0.6,,88.5,88.5,023,NN,023,Tone->Tone,FM,5,,Geiersberg 2m,,,,
34,Hohe Salve,145.775,-,0.6,,88.5,88.5,023,NN,023,Tone->Tone,FM,5,,Hohe Salve 2m,,,,
35,Frauenstaffel,145.7875,-,0.6,Tone,88.5,79.7,023,NN,023,Tone->Tone,FM,5,,Frauenstaffel 2m,,,,
36,Wurmkogel Lift,145.7875,-,0.6,,88.5,88.5,023,NN,023,Tone->Tone,FM,5,,Wurmkogel Lift 2m,,,,