Location,Name,Frequency,Duplex,Offset,Tone,rToneFreq,cToneFreq,DtcsCode,DtcsPolarity,RxDtcsCode,CrossMode,Mode,TStep,Skip,Comment,URCALL,RPT1CALL,RPT2CALL,DVCODE
00,Feuer-7,438.15,-,7.6,Tone,123.0,123.0,023,NN,023,Tone->Tone,FM,5,,Feuerkogel 70cm,,,,
01,St.Ba-7,438.2,-,7.6,Tone,103.5,103.5,023,NN,023,Tone->Tone,FM,5,,St. Bartholomä 70cm,,,,
02,Ehrwa-7,438.225,-,7.6,Tone,88.5,136.5,023,NN,023,Tone->Tone,FM,5,,Ehrwald 70cm,,,,
03,HoheW-7,438.225,-,7.6,Tone,162.2,162.2,023,NN,023,Tone->Tone,FM,5,,Hohe Wand 70cm,,,,
04,Hainf-7,438.3,-,7.6,Tone,88.5,88.5,023,NN,023,Tone->Tone,FM,5,,Hainfelder Hütte 70cm,,,,
05,Hochs-7,438.3,-,7.6,Tone,77.0,77.0,023,NN,023,Tone->Tone,FM,5,,Hochstein 70cm,,,,
06,Klipp-7,438.3,-,7.6,Tone,88.5,88.5,023,NN,023,Tone->Tone,FM,5,,Klippitztörl 70cm,,,,
07,Porrt-7,438.3125,-,7.6,Tone,162.2,162.2,023,NN,023,Tone->Tone,FM,5,,Porrtower 70cm,,,,
08,Gaisb-7,438.4,-,7.6,Tone,88.5,88.5,023,NN,023,Tone->Tone,FM,5,,Gaisberg 70cm,,,,
09,HoheW-7,438.4,-,7.6,Tone,88.5,162.2,023,NN,023,Tone->Tone,FM,5,,Hohe Wand 70cm,,,,
10,Senft-7,438.425,-,7.6,Tone,123.0,123.0,023,NN,023,Tone->Tone,FM,5,,Senftenbach/Wolfau 70cm,,,,
11,Herma-7,438.475,-,7.6,Tone,162.2,162.2,023,NN,023,Tone->Tone,FM,5,,Hermannskogel 70cm,,,,
12,Hollb-7,438.5,-,7.6,Tone,88.5,77.0,023,NN,023,Tone->Tone,FM,5,,Hollbruck 70cm,,,,
13,Gebha-7,438.525,-,7.6,Tone,85.4,85.4,023,NN,023,Tone->Tone,FM,5,,Gebhartsberg 70cm,,,,
14,Kindb-7,438.525,-,7.6,,88.5,88.5,023,NN,023,Tone->Tone,FM,5,,Kindberg 70cm,,,,
15,Villa-7,438.55,-,7.6,Tone,88.5,88.5,023,NN,023,Tone->Tone,FM,5,,Villach LKH 70cm,,,,
16,Breit-7,438.575,-,7.6,Tone,123.0,123.0,023,NN,023,Tone->Tone,FM,5,,Breitenstein 70cm,,,,
17,Magda-7,438.575,-,7.6,Tone,88.5,88.5,023,NN,023,Tone->Tone,FM,5,,Magdalensberg 70cm,,,,
18,Jauer-7,438.6,-,7.6,Tone,162.2,162.2,023,NN,023,Tone->Tone,FM,5,,Jauerling 70cm,,,,
19,Weinb-7,438.6,-,7.6,Tone,88.5,77.0,023,NN,023,Tone->Tone,FM,5,,Weinbergerhaus 70cm,,,,
20,Isels-7,438.625,-,7.6,,88.5,88.5,023,NN,023,Tone->Tone,FM,5,,Iselsberg-Stronach 70cm,,,,
21,Karre-7,438.625,-,7.6,Tone,85.4,85.4,023,NN,023,Tone->Tone,FM,5,,Karren 70cm,,,,
22,Stuhl-7,438.625,-,7.6,,88.5,88.5,023,NN,023,Tone->Tone,FM,5,,Stuhleck 70cm,,,,
23,Laaer-7,438.65,-,7.6,,88.5,88.5,023,NN,023,Tone->Tone,FM,5,,Laaerberg Turm 70cm,,,,
24,Licht-7,438.65,-,7.6,,88.5,88.5,023,NN,023,Tone->Tone,FM,5,,Lichtenberg 70cm,,,,
25,Rosse-7,438.65,-,7.6,,88.5,88.5,023,NN,023,Tone->Tone,FM,5,,Rossegger Str/LWZ 70cm,,,,
26,Seegr-7,438.65,-,7.6,Tone,88.5,77.0,023,NN,023,Tone->Tone,FM,5,,Seegrube 70cm,,,,
27,Klost-7,438.675,-,7.6,,88.5,88.5,023,NN,023,Tone->Tone,FM,5,,Klosterneuburgerhütte 70cm,,,,
28,Hinte-7,438.7,-,7.6,Tone,88.5,162.2,023,NN,023,Tone->Tone,FM,5,,Hinteralm 70cm,,,,
29,Huner-7,438.725,-,7.6,,88.5,88.5,023,NN,023,Tone->Tone,FM,5,,Hunerkogel 70cm,,,,
30,Sonne-7,438.725,-,7.6,Tone,88.5,97.4,023,NN,023,Tone->Tone,FM,5,,Sonnenberg im Leithagebirge 70cm,,,,
31,Dambe-7,438.75,-,7.6,,88.5,88.5,023,NN,023,Tone->Tone,FM,5,,Damberg 70cm,,,,
32,HoheW-7,438.75,-,7.6,,88.5,88.5,023,NN,023,Tone->Tone,FM,5,,Hohe Wand 70cm,,,,
33,Unger-7,438.75,-,7.6,,88.5,88.5,023,NN,023,Tone->Tone,FM,5,,Ungerdorf 70cm,,,,
34,Gramb-7,438.775,-,7.6,,88.5,88.5,023,NN,023,Tone->Tone,FM,5,,Grambach 70cm,,,,
35,LinzF-7,438.775,-,7.6,,88.5,88.5,023,NN,023,Tone->Tone,FM,5,,Linz Froschberg 70cm,,,,
36,Sandl-7,438.775,-,7.6,Tone,88.5,162.2,023,NN,023,Tone->Tone,FM,5,,Sandl 70cm,,,,
37,Busch-7,438.8,-,7.6,,88.5,88.5,023,NN,023,Tone->Tone,FM,5,,Buschberg 70cm,,,,
38,Gruen-7,438.8,-,7.6,Tone,123.0,123.0,023,NN,023,Tone->Tone,FM,5,,Grünberg 70cm,,,,
39,Zirbi-7,438.8,-,7.6,,88.5,88.5,023,NN,023,Tone->Tone,FM,5,,Zirbitzkogel 70cm,,,,
40,Duens-7,438.825,-,7.6,Tone,85.4,85.4,023,NN,023,Tone->Tone,FM,5,,Dünserberg 70cm,,,,
41,Hochk-7,438.825,-,7.6,,88.5,88.5,023,NN,023,Tone->Tone,FM,5,,Hochkönig Matrashaus 70cm,,,,
42,Hutwi-7,438.8375,-,7.6,Tone,88.5,97.4,023,NN,023,Tone->Tone,FM,5,,Hutwisch 70cm,,,,
43,Hochk-7,438.85,-,7.6,,88.5,88.5,023,NN,023,Tone->Tone,FM,5,,Hochkogel 70cm,,,,
44,Nebel-7,438.875,-,7.6,,88.5,88.5,023,NN,023,Tone->Tone,FM,5,,Nebelstein 70cm,,,,
45,Schoe-7,438.875,-,7.6,Tone,103.5,103.5,023,NN,023,Tone->Tone,FM,5,,Schöckl 70cm,,,,
46,Schoe-7,438.875,-,7.6,,88.5,88.5,023,NN,023,Tone->Tone,FM,5,,Schönjöchl 70cm,,,,
47,Dobra-7,438.9,-,7.6,Tone,88.5,88.5,023,NN,023,Tone->Tone,FM,5,,Dobratsch 70cm,,,,
48,Gallz-7,438.9,-,7.6,,88.5,88.5,023,NN,023,Tone->Tone,FM,5,,Gallzein Kogelmoos 70cm,,,,
49,Sonnt-7,438.9,-,7.6,,88.5,88.5,023,NN,023,Tone->Tone,FM,5,,Sonntagberg 70cm,,,,
50,Gefro-7,438.925,-,7.6,Tone,77.0,77.0,023,NN,023,Tone->Tone,FM,5,,Gefrorene Wand 70cm,,,,
51,Rittm-7,438.925,-,7.6,,88.5,88.5,023,NN,023,Tone->Tone,FM,5,,Rittmannsberg 70cm,,,,
52,Kahle-7,438.95,-,7.6,Tone,162.2,162.2,023,NN,023,Tone->Tone,FM,5,,Kahlenberg 70cm,,,,
53,Pfarr-7,438.95,-,7.6,,88.5,88.5,023,NN,023,Tone->Tone,FM,5,,Pfarrkirchen 70cm,,,,
54,Ahorn-7,438.975,-,7.6,Tone,88.5,77.0,023,NN,023,Tone->Tone,FM,5,,Ahorn 70cm,,,,
55,Jochg-7,438.975,-,7.6,Tone,162.2,162.2,023,NN,023,Tone->Tone,FM,5,,Jochgrabenberg 70cm,,,,
56,Speie-7,438.975,-,7.6,,88.5,88.5,023,NN,023,Tone->Tone,FM,5,,Speiereck 70cm,,,,
57,Stern-7,438.975,-,7.6,Tone,123.0,123.0,023,NN,023,Tone->Tone,FM,5,,Sternstein 70cm,,,,
58,Strad-7,438.975,-,7.6,,88.5,88.5,023,NN,023,Tone->Tone,FM,5,,Stradner Kogel 70cm,,,,
59,Gaber-7,439.0,-,7.6,,88.5,88.5,023,NN,023,Tone->Tone,FM,5,,Gaberl/Wiedneralm 70cm,,,,
60,Golde-7,439.0,-,7.6,Tone,88.5,88.5,023,NN,023,Tone->Tone,FM,5,,Goldeck 70cm,,,,
61,Satzb-7,439.0,-,7.6,Tone,162.2,162.2,023,NN,023,Tone->Tone,FM,5,,Satzberg 70cm,,,,
62,Telfs-7,439.0,-,7.6,Tone,77.0,77.0,023,NN,023,Tone->Tone,FM,5,,Telfs Arzbergstraße 70cm,,,,
63,Fraue-7,439.025,-,7.6,Tone,88.5,136.5,023,NN,023,Tone->Tone,FM,5,,Frauenstaffel 70cm,,,,
64,Giess-7,439.025,-,7.6,,88.5,88.5,023,NN,023,Tone->Tone,FM,5,,Gießhübel 70cm,,,,
65,Harsc-7,439.025,-,7.6,Tone,88.5,77.0,023,NN,023,Tone->Tone,FM,5,,Harschbichl 70cm,,,,
66,Gerli-7,439.05,-,7.6,Tone,88.5,88.5,023,NN,023,Tone->Tone,FM,5,,Gerlitzen 70cm,,,,
67,Pichl-7,439.05,-,7.6,,88.5,88.5,023,NN,023,Tone->Tone,FM,5,,Pichling 70cm,,,,
68,Rangg-7,439.05,-,7.6,,88.5,88.5,023,NN,023,Tone->Tone,FM,5,,Rangger Köpfl 70cm,,,,
69,Tropp-7,439.05,-,7.6,,88.5,88.5,023,NN,023,Tone->Tone,FM,5,,Troppberg 70cm,,,,
70,Hochs-7,439.075,-,7.6,,88.5,88.5,023,NN,023,Tone->Tone,FM,5,,Hochstein 70cm,,,,
71,Hochw-7,439.075,-,7.6,,88.5,88.5,023,NN,023,Tone->Tone,FM,5,,Hochwechsel 70cm,,,,
72,Petze-7,439.0875,-,7.6,,88.5,88.5,023,NN,023,Tone->Tone,FM,5,,Petzen 70cm,,,,
73,Eisen-7,439.1,-,7.6,Tone,88.5,103.5,023,NN,023,Tone->Tone,FM,5,,Eisenerzer Reichenstein 70cm,,,,