callsign,name,band,freq_tx,freq_rx,ctcss,ctcss_tx,ctcss_rx,dmr,dmr_id,dstar,dstar_rpt1,dstar_rpt2,fm,landmark,state,country,loc_exact,lat,long,offset,dup,name_formatted,locator,distance,heading
OE1XDS,Wien AKH,2m,145.575,144.975,True,,,False,True,True,C,G,False,Alsergrund,Wien,Austria,True,48.22075,16.34684,0.6,-,OE1XDS,JN88EF,,
OE1XDS,Wien AKH,70cm,438.525,430.925,True,,,False,True,True,B,G,False,Alsergrund,Wien,Austria,True,48.22075,16.34684,7.6,-,OE1XDS,JN88EF,,
OE1XDS,Wien AKH,23cm,1298.65,1270.65,True,,,False,True,True,A,G,False,Alsergrund,Wien,Austria,True,48.22075,16.34684,28.0,-,OE1XDS,JN88EF,,
OE1XQU,Wienerberg,70cm,438.825,431.225,True,,,True,True,True,B,G,False,Inzersdorf Stadt,Wien,Austria,True,48.16803,16.3454,7.6,-,OE1XQU,JN88EE,,
OE2XGR,Gernkogel,70cm,438.525,430.925,True,,,False,True,True,B,G,False,Plankenau,Salzburg,Austria,True,47.30755,13.238225,7.6,-,OE2XGR,JN67OH,,
OE2XZR,Gaisberg,70cm,439.0,431.4,True,,,False,True,True,B,G,False,Heuberg I,Salzburg,Austria,True,47.805128,13.112955,7.6,-,OE2XZR,JN67NT,,
OE3XDA,Hochkogel,2m,145.575,144.975,True,,,False,True,True,C,G,False,Hochkoglberg,Niederösterreich,Austria,True,48.034278,14.951167,0.6,-,OE3XDA,JN78LA,,
OE3XDA,Hochkogel,70cm,438.4,430.8,True,,,False,True,True,B,G,False,Hochkoglberg,Niederösterreich,Austria,True,48.034278,14.951167,7.6,-,OE3XDA,JN78LA,,
OE3XNK,Hohe Wand,70cm,438.2375,430.6375,True,,,False,True,True,B,G,False,Maiersdorf,Niederösterreich,Austria,True,47.8346,16.04605,7.6,-,OE3XNK,JN87AU,,
OE3XNR,Nebelstein,70cm,438.325,430.725,True,,,False,True,True,B,G,False,Hirschenwies,Niederösterreich,Austria,True,48.672816,14.77828,7.6,-,OE3XNR,JN78JQ,,
OE3XPA,Kaiserkogel,70cm,438.45,430.85,True,,,False,True,True,B,G,False,Wehrabach,Niederösterreich,Austria,True,48.05978708,15.53965351,7.6,-,OE3XPA,JN78SB,,
OE3XVI,Unterberg,70cm,438.275,430.675,True,,,False,True,True,B,G,False,Rohr im Gebirge,Niederösterreich,Austria,True,47.93742,15.81881,7.6,-,OE3XVI,JN77VW,,
OE3XWU,Hochwechsel,70cm,439.075,431.475,True,,,True,True,True,B,G,True,Neustift am Alpenwald,Niederösterreich,Austria,True,47.530448,15.9145156,7.6,-,OE3XWU,JN77WM,,
OE4XSB,Sonnenberg im Leithagebirge,70cm,438.3625,430.7625,True,,,True,True,True,B,G,False,Hornstein,Burgenland,Austria,True,47.875443581357835,16.475900647888768,7.6,-,OE4XSB,JN87FV,,
OE5XDN,Senftenbach/Wolfau,70cm,438.425,430.825,True,123.0,123.0,False,True,True,B,G,True,Furth,Oberösterreich,Austria,True,48.27889,13.40661,7.6,-,OE5XDN,JN68QG,,
OE5XGL,Grünberg,70cm,438.2625,430.6625,True,,,False,True,True,B,G,False,Schlagen,Oberösterreich,Austria,True,47.8981318,13.8219805,7.6,-,OE5XGL,JN67VV,,
OE5XIM,Sternstein,70cm,439.0625,431.4625,True,,,False,True,True,B,G,False,Amesschlag,Oberösterreich,Austria,True,48.5599155,14.2690062,7.6,-,OE5XIM,JN78DN,,
OE5XKL,Krippenstein,70cm,438.5,430.9,True,,,True,True,True,B,G,False,Obertraun,Oberösterreich,Austria,True,47.524287,13.69208,7.6,-,OE5XKL,JN67UM,,
OE5XOL,Breitenstein,70cm,438.525,430.925,True,,,False,True,True,B,G,False,Kirchschlag,Oberösterreich,Austria,True,48.4152993,14.27429015,7.6,-,OE5XOL,JN78DJ,,
OE5XTP,Poschenhof,70cm,438.35,430.75,True,,,False,True,True,B,G,False,Wagrain,Oberösterreich,Austria,True,48.02072354491044,13.643034696578981,7.6,-,OE5XTP,JN68TA,,
OE6XDF,Dobl,2m,145.6375,145.0375,True,,,False,True,True,C,G,False,Dobl,Steiermark,Austria,True,46.94991,15.37989,0.6,-,OE6XDF,JN76QW,,
OE7XIH,Hoadl,70cm,438.05,430.45,True,,,False,True,True,B,G,False,Grinzens,Tirol,Austria,True,47.183272,11.281548,7.6,-,OE7XIH,JN57PE,,
OE7XKH,Krahberg,70cm,438.5,430.9,True,,,True,True,True,B,G,False,Zams,Tirol,Austria,True,47.145919,10.626826,7.6,-,OE7XKH,JN57HD,,
OE7XLH,Iselsberg-Stronach,70cm,438.625,431.025,True,,,False,True,True,B,G,True,Iselsberg,Tirol,Austria,True,46.83869,12.84436,7.6,-,OE7XLH,JN66KU,,
OE7XLI,Hochstein,2m,145.725,145.125,True,,,False,True,True,C,G,False,Patriasdorf,Tirol,Austria,True,46.82166,12.70025,0.6,-,OE7XLI,JN66IT,,
OE7XOT,Obtarrenz,70cm,439.1,431.5,True,,,True,True,True,B,G,False,Tarrenz,Tirol,Austria,True,47.279243560012524,10.767288208007812,7.6,-,OE7XOT,JN57JG,,
OE7XXR,Rofan Roßkogel,70cm,438.2,430.6,True,,,False,True,True,B,G,False,Münster,Tirol,Austria,True,47.46738,11.82695,7.6,-,OE7XXR,JN57VL,,
OE8XKK,Pyramidenkogel,70cm,438.8375,431.2375,True,,,False,True,True,B,G,False,Plescherken,Kärnten,Austria,True,46.608914,14.14479,7.6,-,OE8XKK,JN76BO,,
OE8XMK,Magdalensberg,70cm,438.425,430.825,True,,,False,True,True,B,G,False,Ottmanach,Kärnten,Austria,True,46.728051,14.429426,7.6,-,OE8XMK,JN76FR,,
OE8XPK,Petzen,70cm,438.7,431.1,True,,,False,True,True,B,G,False,Unterort,Kärnten,Austria,True,46.518507,14.772985,7.6,-,OE8XPK,JN76JM,,
OE8XVK,Villach LKH,70cm,438.55,430.95,True,88.5,88.5,False,True,True,B,G,True,Villach,Kärnten,Austria,True,46.61612,13.85777,7.6,-,OE8XVK,JN66WO,,
OE8XWZ,Wölfnitz,70cm,438.775,431.175,True,,,False,True,True,B,G,False,Lendorf,Kärnten,Austria,True,46.66441,14.25703,7.6,-,OE8XWZ,JN76DP,,
OE9XVI,Vorderälpele,70cm,438.2,430.6,True,,,False,True,True,B,G,False,Tisis,Vorarlberg,Austria,True,47.20918,9.591069,7.6,-,OE9XVI,JN47TF,,
