callsign,name,band,freq_tx,freq_rx,ctcss,ctcss_tx,ctcss_rx,dmr,dmr_id,dstar,dstar_rpt1,dstar_rpt2,fm,landmark,state,country,loc_exact,lat,long,offset,dup,name_formatted,locator,distance,heading
OE3XLU,Gießhübel,2m,145.5875,144.9875,True,,,False,True,False,,,True,Gießhübl,Niederösterreich,Austria,True,48.09671,16.23893,0.6,-,OE3XLU,JN88CC,,
OE5XLL,Lichtenberg,2m,145.6,145.0,True,,,False,True,False,,,True,Lichtenberg,Oberösterreich,Austria,True,48.38515,14.25445,0.6,-,OE5XLL,JN78DJ,,
OE6XAG,Schöckl,2m,145.6,145.0,True,103.5,103.5,False,True,False,,,True,Schöckl,Steiermark,Austria,True,47.1988534,15.4669424,0.6,-,OE6XAG,JN77RE,,
OE7XTI,Patscherkofel,2m,145.6125,145.0125,True,,77.0,False,True,False,,,True,Patsch,Tirol,Austria,True,47.208287,11.460929,0.6,-,OE7XTI,JN57RE,,
OE2XNL,Speiereck,2m,145.6125,145.0125,True,,,False,True,False,,,True,St. Michael im Lungau,Salzburg,Austria,True,47.127031,13.624763,0.6,-,OE2XNL,JN67TD,,
OE1XFW,Laaerberg Turm,2m,145.625,145.025,True,,,False,True,False,,,True,Oberlaa Stadt,Wien,Austria,True,48.157173,16.396717,0.6,-,OE1XFW,JN88ED,,
OE8XMK,Magdalensberg,2m,145.625,145.025,True,88.5,88.5,False,True,False,,,True,Ottmanach,Kärnten,Austria,True,46.728051,14.429426,0.6,-,OE8XMK,JN76FR,,
OE3XNR,Nebelstein,2m,145.6375,145.0375,True,88.5,,False,True,False,,,True,Hirschenwies,Niederösterreich,Austria,True,48.672816,14.77828,0.6,-,OE3XNR,JN78JQ,,
OE8XDK,Goldeck,2m,145.65,145.05,True,,88.5,False,True,False,,,True,Stockenboi,Kärnten,Austria,True,46.76179,13.45725,0.6,-,OE8XDK,JN66RS,,
OE8XOK,Goldeck,2m,145.65,145.05,True,,,False,True,False,,,True,Stockenboi,Kärnten,Austria,True,46.76179,13.45725,0.6,-,OE8XOK,JN66RS,,
OE3XPA,Kaiserkogel,2m,145.65,145.05,True,,,False,True,False,,,True,Wehrabach,Niederösterreich,Austria,True,48.05978708,15.53965351,0.6,-,OE3XPA,JN78SB,,
OE2XHL,Kitzsteinhorn,2m,145.65,145.05,True,,88.5,False,True,False,,,True,Kaprun,Salzburg,Austria,True,47.188104,12.687513,0.6,-,OE2XHL,JN67IE,,
OE6XBG,Rennfeld,2m,145.65,145.05,True,,103.5,False,True,False,,,True,Übelstein,Steiermark,Austria,True,47.40554,15.35936,0.6,-,OE6XBG,JN77QJ,,
OE9XVI,Vorderälpele,2m,145.65,145.05,True,,,False,True,False,,,True,Tisis,Vorarlberg,Austria,True,47.20918,9.591069,0.6,-,OE9XVI,JN47TF,,
OE7XWH,Grünberg bei Silz,2m,145.6625,145.0625,True,,,False,True,False,,,True,Obsteig,Tirol,Austria,True,47.28231,10.91478,0.6,-,OE7XWH,JN57KG,,
OE7XZH,Bruckerberg,2m,145.675,145.075,True,,,False,True,False,,,True,Bruck am Ziller,Tirol,Austria,True,47.381759,11.874329,0.6,-,OE7XZH,JN57WJ,,
OE6XPG,Planai,2m,145.675,145.075,True,,,False,True,False,,,True,Untertal,Steiermark,Austria,True,47.369088,13.726221,0.6,-,OE6XPG,JN67UI,,
OE2XZR,Gaisberg,2m,145.6875,145.0875,True,88.5,88.5,False,True,False,,,True,Heuberg I,Salzburg,Austria,True,47.805128,13.112955,0.6,-,OE2XZR,JN67NT,,
OE7XVR,Valluga,2m,145.6875,145.0875,True,,77.0,False,True,False,,,True,Kaisers,Tirol,Austria,True,47.15761255,10.21305436,0.6,-,OE7XVR,JN57CD,,
OE7XRT,Hahnenkamm,2m,145.7,145.1,True,,,False,True,False,,,True,Höfen,Tirol,Austria,True,47.478174,10.641632,0.6,-,OE7XRT,JN57HL,,
OE7XLI,Hochstein,2m,145.7,145.1,True,,,False,True,False,,,True,Patriasdorf,Tirol,Austria,True,46.82166,12.70025,0.6,-,OE7XLI,JN66IT,,
OE6XDG,Klosterneuburgerhütte,2m,145.7,145.1,True,,,False,True,False,,,True,Schönberg,Steiermark,Austria,True,47.25505,14.34483,0.6,-,OE6XDG,JN77EG,,
OE3XSA,Sandl,2m,145.7,145.1,True,,162.2,False,True,False,,,True,Stixendorf,Niederösterreich,Austria,True,48.43338,15.471389,0.6,-,OE3XSA,JN78RK,,
OE5XKL,Krippenstein,2m,145.7125,145.1125,True,,,False,True,False,,,True,Obertraun,Oberösterreich,Austria,True,47.524287,13.69208,0.6,-,OE5XKL,JN67UM,,
OE3XHW,Hohe Wand,2m,145.725,145.125,True,,,False,True,False,,,True,Maiersdorf,Niederösterreich,Austria,True,47.8346,16.04605,0.6,-,OE3XHW,JN87AU,,
OE8XPK,Petzen,2m,145.7375,145.1375,True,88.5,88.5,True,True,False,,,True,Unterort,Kärnten,Austria,True,46.518507,14.772985,0.6,-,OE8XPK,JN76JM,,
OE3XQA,Exelberg,2m,145.75,145.15,True,,162.2,False,True,False,,,True,Weidlingbach,Niederösterreich,Austria,True,48.24876033,16.2440474,0.6,-,OE3XQA,JN88CF,,
OE5XGL,Grünberg,2m,145.75,145.15,True,123.0,123.0,False,True,False,,,True,Schlagen,Oberösterreich,Austria,True,47.8981318,13.8219805,0.6,-,OE5XGL,JN67VV,,
OE7XTT,Penkenjoch,2m,145.75,145.15,True,,,False,True,False,,,True,Finkenberg,Tirol,Austria,True,47.168667,11.8,0.6,-,OE7XTT,JN57VE,,
OE8XNK,Gerlitzen,2m,145.7625,145.1625,True,,,False,True,False,,,True,Sauerwald,Kärnten,Austria,True,46.695,13.914166999999999,0.6,-,OE8XNK,JN66WQ,,
OE2XGR,Gernkogel,2m,145.7625,145.1625,True,,88.5,False,True,False,,,True,Plankenau,Salzburg,Austria,True,47.30755,13.238225,0.6,-,OE2XGR,JN67OH,,
OE7XTR,Krahberg,2m,145.7625,145.1625,True,,77.0,False,True,False,,,True,Zams,Tirol,Austria,True,47.145919,10.626826,0.6,-,OE7XTR,JN57HD,,
OE4XUB,Brentenriegel,2m,145.775,145.175,True,,97.4,False,True,False,,,True,Sieggraben,Burgenland,Austria,True,47.659535,16.390592,0.6,-,OE4XUB,JN87EP,,
OE5XUL,Geiersberg,2m,145.775,145.175,True,,,False,True,False,,,True,Geiersberg,Oberösterreich,Austria,True,48.20026,13.58142,0.6,-,OE5XUL,JN68SE,,
OE7XKI,Hohe Salve,2m,145.775,145.175,True,,,False,True,False,,,True,Westendorf,Tirol,Austria,True,47.465,12.204167,0.6,-,OE7XKI,JN67CL,,
OE3XES,Frauenstaffel,2m,145.7875,145.1875,True,,79.7,False,True,False,,,True,Dietmanns,Niederösterreich,Austria,True,48.7931928,15.3499052,0.6,-,OE3XES,JN78QT,,
OE7XGI,Wurmkogel Lift,2m,145.7875,145.1875,True,,,False,True,False,,,True,Sölden,Tirol,Austria,True,46.88041,11.08384,0.6,-,OE7XGI,JN56NV,,
