Group No;Group Name;CH No;Name;Frequency;Dup;Offset;TS;Mode;SKIP;TONE;Repeater Tone;TSQL Frequency;DTCS Code;DTCS Polarity;DV SQL;DV CSQL Code;Your Call Sign;RPT1 Call Sign;RPT2 Call Sign
04;OE 23cm Repeaters;00;Rangger Koepfl;1259,2;DUP+;-35,0;12,5kHz;FM;OFF;OFF;88,5Hz;88,5Hz;23;BOTH N;;;;OE7XBI;
04;OE 23cm Repeaters;01;Dobl;1298,05;DUP-;28,0;12,5kHz;FM;OFF;OFF;88,5Hz;88,5Hz;23;BOTH N;;;;OE6XDF;
04;OE 23cm Repeaters;02;Dobratsch;1298,15;DUP-;28,0;12,5kHz;FM;OFF;OFF;88,5Hz;88,5Hz;23;BOTH N;;;;OE8XFQ;
04;OE 23cm Repeaters;03;Schoeckl;1298,2;DUP-;28,0;12,5kHz;FM;OFF;OFF;88,5Hz;88,5Hz;23;BOTH N;;;;OE6XDD;
04;OE 23cm Repeaters;04;Hochwechsel;1298,225;DUP-;28,0;12,5kHz;FM;OFF;OFF;88,5Hz;88,5Hz;23;BOTH N;;;;OE3XFC;
04;OE 23cm Repeaters;05;Wienerberg;1298,25;DUP-;28,0;12,5kHz;FM;OFF;OFF;88,5Hz;88,5Hz;23;BOTH N;;;;OE1XQU;
04;OE 23cm Repeaters;06;Laaerberg Wohntower;1298,275;DUP-;28,0;12,5kHz;FM;OFF;OFF;88,5Hz;88,5Hz;23;BOTH N;;;;OE1XCS;
04;OE 23cm Repeaters;07;Gaisberg;1298,375;DUP-;28,0;12,5kHz;FM;OFF;OFF;88,5Hz;88,5Hz;23;BOTH N;;;;OE2XZR;
04;OE 23cm Repeaters;08;Hinteralm;1298,5;DUP-;28,0;12,5kHz;FM;OFF;OFF;88,5Hz;88,5Hz;23;BOTH N;;;;OE3XPC;