Channel Number;Channel Name;Channel Type;Rx Frequency;Tx Frequency;Bandwidth (kHz);Colour Code;Timeslot;Contact;TG List;DMR ID;TS1_TA_Tx;TS2_TA_Tx ID;RX Tone;TX Tone;Squelch;Power;Rx Only;Zone Skip;All Skip;TOT;VOX;No Beep;No Eco;APRS;Latitude;Longitude
1;Brau-6;Analogue;51,81;51,21;12,5;;;;;;;;88,5;88,5;Disabled;Master;No;No;No;0;Off;No;No;None;48,25152;13,03791
2;Jaue-6;Analogue;51,9;51,3;12,5;;;;;;;;162,2;162,2;Disabled;Master;No;No;No;0;Off;No;No;None;48,33452;15,33768
3;Rang-6;Analogue;51,91;51,31;12,5;;;;;;;;88,5;77,0;Disabled;Master;No;No;No;0;Off;No;No;None;47,24298;11,18117
4;Gies-2;Analogue;145,5875;144,9875;12,5;;;;;;;;88,5;88,5;Disabled;Master;No;No;No;0;Off;No;No;None;48,09671;16,23893
5;Lich-2;Analogue;145,6;145,0;12,5;;;;;;;;88,5;88,5;Disabled;Master;No;No;No;0;Off;No;No;None;48,38515;14,25445
6;Scho-2;Analogue;145,6;145,0;12,5;;;;;;;;103,5;103,5;Disabled;Master;No;No;No;0;Off;No;No;None;47,19885;15,46694
7;Pats-2;Analogue;145,6125;145,0125;12,5;;;;;;;;88,5;77,0;Disabled;Master;No;No;No;0;Off;No;No;None;47,20829;11,46093
8;Spei-2;Analogue;145,6125;145,0125;12,5;;;;;;;;88,5;88,5;Disabled;Master;No;No;No;0;Off;No;No;None;47,12703;13,62476
9;Laae-2;Analogue;145,625;145,025;12,5;;;;;;;;88,5;88,5;Disabled;Master;No;No;No;0;Off;No;No;None;48,15717;16,39672
10;Magd-2;Analogue;145,625;145,025;12,5;;;;;;;;88,5;88,5;Disabled;Master;No;No;No;0;Off;No;No;None;46,72805;14,42943
11;Nebe-2;Analogue;145,6375;145,0375;12,5;;;;;;;;88,5;88,5;Disabled;Master;No;No;No;0;Off;No;No;None;48,67282;14,77828
12;Gold-2;Analogue;145,65;145,05;12,5;;;;;;;;88,5;88,5;Disabled;Master;No;No;No;0;Off;No;No;None;46,76179;13,45725
13;Gold-2;Analogue;145,65;145,05;12,5;;;;;;;;88,5;88,5;Disabled;Master;No;No;No;0;Off;No;No;None;46,76179;13,45725
14;Kais-2;Analogue;145,65;145,05;12,5;;;;;;;;88,5;88,5;Disabled;Master;No;No;No;0;Off;No;No;None;48,05979;15,53965
15;Kitz-2;Analogue;145,65;145,05;12,5;;;;;;;;88,5;88,5;Disabled;Master;No;No;No;0;Off;No;No;None;47,1881;12,68751
16;Renn-2;Analogue;145,65;145,05;12,5;;;;;;;;88,5;103,5;Disabled;Master;No;No;No;0;Off;No;No;None;47,40554;15,35936
17;Vord-2;Analogue;145,65;145,05;12,5;;;;;;;;88,5;88,5;Disabled;Master;No;No;No;0;Off;No;No;None;47,20918;9,59107
18;Grue-2;Analogue;145,6625;145,0625;12,5;;;;;;;;88,5;88,5;Disabled;Master;No;No;No;0;Off;No;No;None;47,28231;10,91478
19;Bruc-2;Analogue;145,675;145,075;12,5;;;;;;;;88,5;88,5;Disabled;Master;No;No;No;0;Off;No;No;None;47,38176;11,87433
20;Plan-2;Analogue;145,675;145,075;12,5;;;;;;;;88,5;88,5;Disabled;Master;No;No;No;0;Off;No;No;None;47,36909;13,72622
21;Gais-2;Analogue;145,6875;145,0875;12,5;;;;;;;;88,5;88,5;Disabled;Master;No;No;No;0;Off;No;No;None;47,80513;13,11295
22;Vall-2;Analogue;145,6875;145,0875;12,5;;;;;;;;88,5;77,0;Disabled;Master;No;No;No;0;Off;No;No;None;47,15761;10,21305
23;Hahn-2;Analogue;145,7;145,1;12,5;;;;;;;;88,5;88,5;Disabled;Master;No;No;No;0;Off;No;No;None;47,47817;10,64163
24;Hoch-2;Analogue;145,7;145,1;12,5;;;;;;;;88,5;88,5;Disabled;Master;No;No;No;0;Off;No;No;None;46,82166;12,70025
25;Klos-2;Analogue;145,7;145,1;12,5;;;;;;;;88,5;88,5;Disabled;Master;No;No;No;0;Off;No;No;None;47,25505;14,34483
26;Sand-2;Analogue;145,7;145,1;12,5;;;;;;;;88,5;162,2;Disabled;Master;No;No;No;0;Off;No;No;None;48,43338;15,47139
27;Krip-2;Analogue;145,7125;145,1125;12,5;;;;;;;;88,5;88,5;Disabled;Master;No;No;No;0;Off;No;No;None;47,52429;13,69208
28;Hohe-2;Analogue;145,725;145,125;12,5;;;;;;;;88,5;88,5;Disabled;Master;No;No;No;0;Off;No;No;None;47,8346;16,04605
29;Petz-2;Analogue;145,7375;145,1375;12,5;;;;;;;;88,5;88,5;Disabled;Master;No;No;No;0;Off;No;No;None;46,51851;14,77299
30;Petz-2;Digital;145,7375;145,1375;;1;2;None;None;None;Off;Off;;;;Master;No;No;No;0;Off;No;No;None;46,51851;14,77299
31;Exel-2;Analogue;145,75;145,15;12,5;;;;;;;;88,5;162,2;Disabled;Master;No;No;No;0;Off;No;No;None;48,24876;16,24405
32;Grue-2;Analogue;145,75;145,15;12,5;;;;;;;;123,0;123,0;Disabled;Master;No;No;No;0;Off;No;No;None;47,89813;13,82198
33;Penk-2;Analogue;145,75;145,15;12,5;;;;;;;;88,5;88,5;Disabled;Master;No;No;No;0;Off;No;No;None;47,16867;11,8
34;Gerl-2;Analogue;145,7625;145,1625;12,5;;;;;;;;88,5;88,5;Disabled;Master;No;No;No;0;Off;No;No;None;46,695;13,91417
35;Gern-2;Analogue;145,7625;145,1625;12,5;;;;;;;;88,5;88,5;Disabled;Master;No;No;No;0;Off;No;No;None;47,30755;13,23822
36;Krah-2;Analogue;145,7625;145,1625;12,5;;;;;;;;88,5;77,0;Disabled;Master;No;No;No;0;Off;No;No;None;47,14592;10,62683
37;Bren-2;Analogue;145,775;145,175;12,5;;;;;;;;88,5;97,4;Disabled;Master;No;No;No;0;Off;No;No;None;47,65953;16,39059
38;Geie-2;Analogue;145,775;145,175;12,5;;;;;;;;88,5;88,5;Disabled;Master;No;No;No;0;Off;No;No;None;48,20026;13,58142
39;Hohe-2;Analogue;145,775;145,175;12,5;;;;;;;;88,5;88,5;Disabled;Master;No;No;No;0;Off;No;No;None;47,465;12,20417
40;Frau-2;Analogue;145,7875;145,1875;12,5;;;;;;;;88,5;79,7;Disabled;Master;No;No;No;0;Off;No;No;None;48,79319;15,34991
41;Wurm-2;Analogue;145,7875;145,1875;12,5;;;;;;;;88,5;88,5;Disabled;Master;No;No;No;0;Off;No;No;None;46,88041;11,08384
42;Scho-D;Digital;437,975;430,375;;1;2;None;None;None;Off;Off;;;;Master;No;No;No;0;Off;No;No;None;47,19885;15,46694
43;Klos-D;Digital;438,075;430,475;;1;2;None;None;None;Off;Off;;;;Master;No;No;No;0;Off;No;No;None;47,25505;14,34483
44;Feue-7;Analogue;438,15;430,55;12,5;;;;;;;;123,0;123,0;Disabled;Master;No;No;No;0;Off;No;No;None;47,81588;13,72133
45;Hoch-D;Digital;438,2;430,6;;1;2;None;None;None;Off;Off;;;;Master;No;No;No;0;Off;No;No;None;47,71083;14,90111
46;St.B-7;Analogue;438,2;430,6;12,5;;;;;;;;103,5;103,5;Disabled;Master;No;No;No;0;Off;No;No;None;47,07115;15,25653
47;Ehrw-7;Analogue;438,225;430,625;12,5;;;;;;;;88,5;136,5;Disabled;Master;No;No;No;0;Off;No;No;None;47,41245;10,91642
48;Hohe-7;Analogue;438,225;430,625;12,5;;;;;;;;162,2;162,2;Disabled;Master;No;No;No;0;Off;No;No;None;47,8346;16,04605
49;Hohe-7;Digital;438,225;430,625;;1;2;None;None;None;Off;Off;;;;Master;No;No;No;0;Off;No;No;None;47,8346;16,04605
50;Hars-D;Digital;438,25;430,65;;1;2;None;None;None;Off;Off;;;;Master;No;No;No;0;Off;No;No;None;47,48446;12,42795
51;Mugl-D;Digital;438,25;430,65;;1;2;None;None;None;Off;Off;;;;Master;No;No;No;0;Off;No;No;None;47,3587;15,18808
52;Ster-D;Digital;438,25;430,65;;1;2;None;None;None;Off;Off;;;;Master;No;No;No;0;Off;No;No;None;48,55992;14,26901
53;Mutt-D;Digital;438,275;430,675;;1;2;None;None;None;Off;Off;;;;Master;No;No;No;0;Off;No;No;None;47,18058;9,82534
54;Vord-D;Digital;438,2875;430,6875;;1;2;None;None;None;Off;Off;;;;Master;No;No;No;0;Off;No;No;None;47,20918;9,59107
55;Hain-7;Analogue;438,3;430,7;12,5;;;;;;;;88,5;88,5;Disabled;Master;No;No;No;0;Off;No;No;None;48,01935;15,7537
56;Hoch-7;Analogue;438,3;430,7;12,5;;;;;;;;77,0;77,0;Disabled;Master;No;No;No;0;Off;No;No;None;46,82166;12,70025
57;Klip-7;Analogue;438,3;430,7;12,5;;;;;;;;88,5;88,5;Disabled;Master;No;No;No;0;Off;No;No;None;46,93639;14,67506
58;Porr-7;Analogue;438,3125;430,7125;12,5;;;;;;;;162,2;162,2;Disabled;Master;No;No;No;0;Off;No;No;None;48,16796;16,38716
59;Dona-D;Digital;438,3375;430,7375;;1;2;None;None;None;Off;Off;;;;Master;No;No;No;0;Off;No;No;None;48,24025;16,41005
60;Sand-D;Digital;438,35;430,75;;1;2;None;None;None;Off;Off;;;;Master;No;No;No;0;Off;No;No;None;48,43338;15,47139
61;Sonn-D;Digital;438,3625;430,7625;;1;2;None;None;None;Off;Off;;;;Master;No;No;No;0;Off;No;No;None;47,87544;16,4759
62;Weit-D;Digital;438,375;430,775;;1;2;None;None;None;Off;Off;;;;Master;No;No;No;0;Off;No;No;None;48,22104;15,62219
63;Gais-7;Analogue;438,4;430,8;12,5;;;;;;;;88,5;88,5;Disabled;Master;No;No;No;0;Off;No;No;None;47,80513;13,11295
64;Hohe-7;Analogue;438,4;430,8;12,5;;;;;;;;88,5;162,2;Disabled;Master;No;No;No;0;Off;No;No;None;47,8346;16,04605
65;Hohe-7;Digital;438,4;430,8;;1;2;None;None;None;Off;Off;;;;Master;No;No;No;0;Off;No;No;None;47,8346;16,04605
66;Inns-D;Digital;438,4;430,8;;1;2;None;None;None;Off;Off;;;;Master;No;No;No;0;Off;No;No;None;47,26482;11,39865
67;Kuhb-D;Digital;438,4;430,8;;1;2;None;None;None;Off;Off;;;;Master;No;No;No;0;Off;No;No;None;48,41759;15,58244
68;Jaue-D;Digital;438,425;430,825;;1;2;None;None;None;Off;Off;;;;Master;No;No;No;0;Off;No;No;None;48,33452;15,33768
69;Klos-D;Digital;438,425;430,825;;1;2;None;None;None;Off;Off;;;;Master;No;No;No;0;Off;No;No;None;47,25505;14,34483
70;Senf-7;Analogue;438,425;430,825;12,5;;;;;;;;123,0;123,0;Disabled;Master;No;No;No;0;Off;No;No;None;48,27889;13,40661
71;Bruc-D;Digital;438,45;430,85;;1;2;None;None;None;Off;Off;;;;Master;No;No;No;0;Off;No;No;None;47,38176;11,87433
72;Fink-D;Digital;438,45;430,85;;1;2;None;None;None;Off;Off;;;;Master;No;No;No;0;Off;No;No;None;46,56579;13,83948
73;Laae-D;Digital;438,45;430,85;;1;2;None;None;None;Off;Off;;;;Master;No;No;No;0;Off;No;No;None;48,15508;16,39578
74;Hard-D;Digital;438,4625;430,8625;;1;2;None;None;None;Off;Off;;;;Master;No;No;No;0;Off;No;No;None;47,48602;9,69444
75;Herm-7;Analogue;438,475;430,875;12,5;;;;;;;;162,2;162,2;Disabled;Master;No;No;No;0;Off;No;No;None;48,27042;16,29355
76;Lich-D;Digital;438,475;430,875;;1;2;None;None;None;Off;Off;;;;Master;No;No;No;0;Off;No;No;None;48,38515;14,25445
77;Wein-D;Digital;438,475;430,875;;1;2;None;None;None;Off;Off;;;;Master;No;No;No;0;Off;No;No;None;47,57772;12,20958
78;Bisa-D;Digital;438,5;430,9;;1;2;None;None;None;Off;Off;;;;Master;No;No;No;0;Off;No;No;None;48,31065;16,38278
79;Fron-D;Digital;438,5;430,9;;1;2;None;None;None;Off;Off;;;;Master;No;No;No;0;Off;No;No;None;48,03663;15,43243
80;Holl-7;Analogue;438,5;430,9;12,5;;;;;;;;88,5;77,0;Disabled;Master;No;No;No;0;Off;No;No;None;46,73872;12,45378
81;Karr-D;Digital;438,5;430,9;;1;2;None;None;None;Off;Off;;;;Master;No;No;No;0;Off;No;No;None;47,38803;9,75084
82;Krah-D;Digital;438,5;430,9;;1;2;None;None;None;Off;Off;;;;Master;No;No;No;0;Off;No;No;None;47,14592;10,62683
83;Krip-D;Digital;438,5;430,9;;1;2;None;None;None;Off;Off;;;;Master;No;No;No;0;Off;No;No;None;47,52429;13,69208
84;Petz-D;Digital;438,5;430,9;;1;2;None;None;None;Off;Off;;;;Master;No;No;No;0;Off;No;No;None;46,51851;14,77299
85;Gebh-7;Analogue;438,525;430,925;12,5;;;;;;;;85,4;85,4;Disabled;Master;No;No;No;0;Off;No;No;None;47,49003;9,74761
86;Kind-7;Analogue;438,525;430,925;12,5;;;;;;;;88,5;88,5;Disabled;Master;No;No;No;0;Off;No;No;None;47,50585;15,44903
87;Kind-7;Digital;438,525;430,925;;1;2;None;None;None;Off;Off;;;;Master;No;No;No;0;Off;No;No;None;47,50585;15,44903
88;Bren-D;Digital;438,55;430,95;;1;2;None;None;None;Off;Off;;;;Master;No;No;No;0;Off;No;No;None;47,65953;16,39059
89;Gais-D;Digital;438,55;430,95;;1;2;None;None;None;Off;Off;;;;Master;No;No;No;0;Off;No;No;None;47,80513;13,11295
90;Sonn-D;Digital;438,55;430,95;;1;2;None;None;None;Off;Off;;;;Master;No;No;No;0;Off;No;No;None;47,99654;14,76447
91;Vill-7;Analogue;438,55;430,95;12,5;;;;;;;;88,5;88,5;Disabled;Master;No;No;No;0;Off;No;No;None;46,61612;13,85777
92;Brei-7;Analogue;438,575;430,975;12,5;;;;;;;;123,0;123,0;Disabled;Master;No;No;No;0;Off;No;No;None;48,4153;14,27429
93;Magd-7;Analogue;438,575;430,975;12,5;;;;;;;;88,5;88,5;Disabled;Master;No;No;No;0;Off;No;No;None;46,72805;14,42943
94;Moen-D;Digital;438,575;430,975;;1;2;None;None;None;Off;Off;;;;Master;No;No;No;0;Off;No;No;None;47,5107;16,03767
95;Jaue-7;Analogue;438,6;431,0;12,5;;;;;;;;162,2;162,2;Disabled;Master;No;No;No;0;Off;No;No;None;48,33452;15,33768
96;Pyra-D;Digital;438,6;431,0;;1;2;None;None;None;Off;Off;;;;Master;No;No;No;0;Off;No;No;None;46,60891;14,14479
97;Scho-D;Digital;438,6;431,0;;1;2;None;None;None;Off;Off;;;;Master;No;No;No;0;Off;No;No;None;47,19885;15,46694
98;Wein-7;Analogue;438,6;431,0;12,5;;;;;;;;88,5;77,0;Disabled;Master;No;No;No;0;Off;No;No;None;47,57772;12,20958
99;Nebe-D;Digital;438,6125;431,0125;;1;2;None;None;None;Off;Off;;;;Master;No;No;No;0;Off;No;No;None;48,67282;14,77828
100;Isel-7;Analogue;438,625;431,025;12,5;;;;;;;;88,5;88,5;Disabled;Master;No;No;No;0;Off;No;No;None;46,83869;12,84436
101;Kamm-D;Digital;438,625;431,025;;1;2;None;None;None;Off;Off;;;;Master;No;No;No;0;Off;No;No;None;47,48381;12,58965
102;Karr-7;Analogue;438,625;431,025;12,5;;;;;;;;85,4;85,4;Disabled;Master;No;No;No;0;Off;No;No;None;47,38803;9,75084
103;Stuh-7;Analogue;438,625;431,025;12,5;;;;;;;;88,5;88,5;Disabled;Master;No;No;No;0;Off;No;No;None;47,57417;15,79
104;Vieh-D;Digital;438,625;431,025;;1;2;None;None;None;Off;Off;;;;Master;No;No;No;0;Off;No;No;None;48,18998;14,52092
105;Laae-7;Analogue;438,65;431,05;12,5;;;;;;;;88,5;88,5;Disabled;Master;No;No;No;0;Off;No;No;None;48,15717;16,39672
106;Lich-7;Analogue;438,65;431,05;12,5;;;;;;;;88,5;88,5;Disabled;Master;No;No;No;0;Off;No;No;None;48,38515;14,25445
107;Ross-7;Analogue;438,65;431,05;12,5;;;;;;;;88,5;88,5;Disabled;Master;No;No;No;0;Off;No;No;None;46,61189;14,29801
108;Seeg-7;Analogue;438,65;431,05;12,5;;;;;;;;88,5;77,0;Disabled;Master;No;No;No;0;Off;No;No;None;47,30557;11,37786
109;Exel-D;Digital;438,675;431,075;;1;2;None;None;None;Off;Off;;;;Master;No;No;No;0;Off;No;No;None;48,24876;16,24405
110;Klos-7;Analogue;438,675;431,075;12,5;;;;;;;;88,5;88,5;Disabled;Master;No;No;No;0;Off;No;No;None;47,25505;14,34483
111;Hint-7;Analogue;438,7;431,1;12,5;;;;;;;;88,5;162,2;Disabled;Master;No;No;No;0;Off;No;No;None;47,97206;15,61039
112;Hint-7;Digital;438,7;431,1;;1;2;None;None;None;Off;Off;;;;Master;No;No;No;0;Off;No;No;None;47,97206;15,61039
113;Hune-7;Analogue;438,725;431,125;12,5;;;;;;;;88,5;88,5;Disabled;Master;No;No;No;0;Off;No;No;None;47,46794;13,62624
114;Klei-D;Digital;438,725;431,125;;1;2;None;None;None;Off;Off;;;;Master;No;No;No;0;Off;No;No;None;48,66351;16,59337
115;Sonn-7;Analogue;438,725;431,125;12,5;;;;;;;;88,5;97,4;Disabled;Master;No;No;No;0;Off;No;No;None;47,87544;16,4759
116;Damb-7;Analogue;438,75;431,15;12,5;;;;;;;;88,5;88,5;Disabled;Master;No;No;No;0;Off;No;No;None;48,00736;14,45216
117;Hohe-7;Analogue;438,75;431,15;12,5;;;;;;;;88,5;88,5;Disabled;Master;No;No;No;0;Off;No;No;None;47,8346;16,04605
118;Unge-7;Analogue;438,75;431,15;12,5;;;;;;;;88,5;88,5;Disabled;Master;No;No;No;0;Off;No;No;None;47,0938;15,69455
119;Gram-7;Analogue;438,775;431,175;12,5;;;;;;;;88,5;88,5;Disabled;Master;No;No;No;0;Off;No;No;None;47,00617;15,4962
120;Linz-7;Analogue;438,775;431,175;12,5;;;;;;;;88,5;88,5;Disabled;Master;No;No;No;0;Off;No;No;None;48,28849;14,27855
121;Sand-7;Analogue;438,775;431,175;12,5;;;;;;;;88,5;162,2;Disabled;Master;No;No;No;0;Off;No;No;None;48,43338;15,47139
122;Busc-7;Analogue;438,8;431,2;12,5;;;;;;;;88,5;88,5;Disabled;Master;No;No;No;0;Off;No;No;None;48,57704;16,39555
123;Grue-7;Analogue;438,8;431,2;12,5;;;;;;;;123,0;123,0;Disabled;Master;No;No;No;0;Off;No;No;None;47,89813;13,82198
124;Grue-7;Digital;438,8;431,2;;1;2;None;None;None;Off;Off;;;;Master;No;No;No;0;Off;No;No;None;47,89813;13,82198
125;Zirb-7;Analogue;438,8;431,2;12,5;;;;;;;;88,5;88,5;Disabled;Master;No;No;No;0;Off;No;No;None;47,06347;14,5673
126;Duen-7;Analogue;438,825;431,225;12,5;;;;;;;;85,4;85,4;Disabled;Master;No;No;No;0;Off;No;No;None;47,22903;9,73779
127;Hoch-7;Analogue;438,825;431,225;12,5;;;;;;;;88,5;88,5;Disabled;Master;No;No;No;0;Off;No;No;None;47,42026;13,06239
128;Wien-D;Digital;438,825;431,225;;1;2;None;None;None;Off;Off;;;;Master;No;No;No;0;Off;No;No;None;48,16803;16,3454
129;Hutw-7;Analogue;438,8375;431,2375;12,5;;;;;;;;88,5;97,4;Disabled;Master;No;No;No;0;Off;No;No;None;47,46315;16,22183
130;Hoch-7;Analogue;438,85;431,25;12,5;;;;;;;;88,5;88,5;Disabled;Master;No;No;No;0;Off;No;No;None;48,03428;14,95117
131;Magd-D;Digital;438,85;431,25;;1;2;None;None;None;Off;Off;;;;Master;No;No;No;0;Off;No;No;None;46,72805;14,42943
132;Hoch-D;Digital;438,875;431,275;;1;2;None;None;None;Off;Off;;;;Master;No;No;No;0;Off;No;No;None;46,82166;12,70025
133;Nebe-7;Analogue;438,875;431,275;12,5;;;;;;;;88,5;88,5;Disabled;Master;No;No;No;0;Off;No;No;None;48,67282;14,77828
134;Scho-7;Analogue;438,875;431,275;12,5;;;;;;;;103,5;103,5;Disabled;Master;No;No;No;0;Off;No;No;None;47,19885;15,46694
135;Scho-7;Analogue;438,875;431,275;12,5;;;;;;;;88,5;88,5;Disabled;Master;No;No;No;0;Off;No;No;None;47,07724;10,59837
136;Dobr-7;Analogue;438,9;431,3;12,5;;;;;;;;88,5;88,5;Disabled;Master;No;No;No;0;Off;No;No;None;46,6034;13,67099
137;Dobr-7;Digital;438,9;431,3;;1;2;None;None;None;Off;Off;;;;Master;No;No;No;0;Off;No;No;None;46,6034;13,67099
138;Gall-7;Analogue;438,9;431,3;12,5;;;;;;;;88,5;88,5;Disabled;Master;No;No;No;0;Off;No;No;None;47,357;11,755
139;Sonn-7;Analogue;438,9;431,3;12,5;;;;;;;;88,5;88,5;Disabled;Master;No;No;No;0;Off;No;No;None;47,99654;14,76447
140;Stra-D;Digital;438,9125;431,3125;;1;2;None;None;None;Off;Off;;;;Master;No;No;No;0;Off;No;No;None;46,84522;15,93198
141;Gefr-7;Analogue;438,925;431,325;12,5;;;;;;;;77,0;77,0;Disabled;Master;No;No;No;0;Off;No;No;None;47,06498;11,6792
142;Gefr-7;Digital;438,925;431,325;;1;2;None;None;None;Off;Off;;;;Master;No;No;No;0;Off;No;No;None;47,06498;11,6792
143;Renn-D;Digital;438,925;431,325;;1;2;None;None;None;Off;Off;;;;Master;No;No;No;0;Off;No;No;None;47,40554;15,35936
144;Ritt-7;Analogue;438,925;431,325;12,5;;;;;;;;88,5;88,5;Disabled;Master;No;No;No;0;Off;No;No;None;48,17465;14,53197
145;Kahl-7;Analogue;438,95;431,35;12,5;;;;;;;;162,2;162,2;Disabled;Master;No;No;No;0;Off;No;No;None;48,27614;16,33322
146;Pfar-7;Analogue;438,95;431,35;12,5;;;;;;;;88,5;88,5;Disabled;Master;No;No;No;0;Off;No;No;None;48,50287;13,82562
147;St.G-D;Digital;438,95;431,35;;1;2;None;None;None;Off;Off;;;;Master;No;No;No;0;Off;No;No;None;46,80088;14,43904
148;Ahor-7;Analogue;438,975;431,375;12,5;;;;;;;;88,5;77,0;Disabled;Master;No;No;No;0;Off;No;No;None;47,13717;11,86928
149;Joch-7;Analogue;438,975;431,375;12,5;;;;;;;;162,2;162,2;Disabled;Master;No;No;No;0;Off;No;No;None;48,15307;16,01629
150;Spei-7;Analogue;438,975;431,375;12,5;;;;;;;;88,5;88,5;Disabled;Master;No;No;No;0;Off;No;No;None;47,12703;13,62476
151;Ster-7;Analogue;438,975;431,375;12,5;;;;;;;;123,0;123,0;Disabled;Master;No;No;No;0;Off;No;No;None;48,55992;14,26901
152;Stra-7;Analogue;438,975;431,375;12,5;;;;;;;;88,5;88,5;Disabled;Master;No;No;No;0;Off;No;No;None;46,84522;15,93198
153;Gabe-7;Analogue;439,0;431,4;12,5;;;;;;;;88,5;88,5;Disabled;Master;No;No;No;0;Off;No;No;None;47,11856;14,93233
154;Gold-7;Analogue;439,0;431,4;12,5;;;;;;;;88,5;88,5;Disabled;Master;No;No;No;0;Off;No;No;None;46,76179;13,45725
155;Mitt-D;Digital;439,0;431,4;;1;2;None;None;None;Off;Off;;;;Master;No;No;No;0;Off;No;No;None;47,28783;12,47728
156;Satz-7;Analogue;439,0;431,4;12,5;;;;;;;;162,2;162,2;Disabled;Master;No;No;No;0;Off;No;No;None;48,21527;16,26133
157;Telf-7;Analogue;439,0;431,4;12,5;;;;;;;;77,0;77,0;Disabled;Master;No;No;No;0;Off;No;No;None;47,31805;11,07876
158;Frau-7;Analogue;439,025;431,425;12,5;;;;;;;;88,5;136,5;Disabled;Master;No;No;No;0;Off;No;No;None;48,79319;15,34991
159;Gies-7;Analogue;439,025;431,425;12,5;;;;;;;;88,5;88,5;Disabled;Master;No;No;No;0;Off;No;No;None;48,09671;16,23893
160;Hars-7;Analogue;439,025;431,425;12,5;;;;;;;;88,5;77,0;Disabled;Master;No;No;No;0;Off;No;No;None;47,48446;12,42795
161;Gerl-7;Analogue;439,05;431,45;12,5;;;;;;;;88,5;88,5;Disabled;Master;No;No;No;0;Off;No;No;None;46,695;13,91417
162;Pich-7;Analogue;439,05;431,45;12,5;;;;;;;;88,5;88,5;Disabled;Master;No;No;No;0;Off;No;No;None;46,91079;15,2744
163;Rang-7;Analogue;439,05;431,45;12,5;;;;;;;;88,5;88,5;Disabled;Master;No;No;No;0;Off;No;No;None;47,24298;11,18117
164;Trop-7;Analogue;439,05;431,45;12,5;;;;;;;;88,5;88,5;Disabled;Master;No;No;No;0;Off;No;No;None;48,22399;16,11008
165;Hoch-7;Analogue;439,075;431,475;12,5;;;;;;;;88,5;88,5;Disabled;Master;No;No;No;0;Off;No;No;None;46,82166;12,70025
166;Hoch-7;Analogue;439,075;431,475;12,5;;;;;;;;88,5;88,5;Disabled;Master;No;No;No;0;Off;No;No;None;47,53045;15,91452
167;Hoch-7;Digital;439,075;431,475;;1;2;None;None;None;Off;Off;;;;Master;No;No;No;0;Off;No;No;None;47,53045;15,91452
168;Rang-D;Digital;439,075;431,475;;1;2;None;None;None;Off;Off;;;;Master;No;No;No;0;Off;No;No;None;47,24298;11,18117
169;Hohe-D;Digital;439,0875;431,4875;;1;2;None;None;None;Off;Off;;;;Master;No;No;No;0;Off;No;No;None;47,05397;12,95719
170;Petz-7;Analogue;439,0875;431,4875;12,5;;;;;;;;88,5;88,5;Disabled;Master;No;No;No;0;Off;No;No;None;46,51851;14,77299
171;Eise-7;Analogue;439,1;431,5;12,5;;;;;;;;88,5;103,5;Disabled;Master;No;No;No;0;Off;No;No;None;47,50084;14,93229
172;Obta-D;Digital;439,1;431,5;;1;2;None;None;None;Off;Off;;;;Master;No;No;No;0;Off;No;No;None;47,27924;10,76729
173;Rang-2;Analogue;1259,2;1294,2;12,5;;;;;;;;88,5;88,5;Disabled;Master;No;No;No;0;Off;No;No;None;47,24298;11,18117
174;Dobl-2;Analogue;1298,05;1270,05;12,5;;;;;;;;88,5;88,5;Disabled;Master;No;No;No;0;Off;No;No;None;46,94991;15,37989
175;Dobr-2;Analogue;1298,15;1270,15;12,5;;;;;;;;88,5;88,5;Disabled;Master;No;No;No;0;Off;No;No;None;46,6034;13,67099
176;Scho-2;Analogue;1298,2;1270,2;12,5;;;;;;;;88,5;88,5;Disabled;Master;No;No;No;0;Off;No;No;None;47,19885;15,46694
177;Hoch-2;Analogue;1298,225;1270,225;12,5;;;;;;;;88,5;88,5;Disabled;Master;No;No;No;0;Off;No;No;None;47,53045;15,91452
178;Wien-2;Analogue;1298,25;1270,25;12,5;;;;;;;;88,5;88,5;Disabled;Master;No;No;No;0;Off;No;No;None;48,16803;16,3454
179;Laae-2;Analogue;1298,275;1270,275;12,5;;;;;;;;88,5;88,5;Disabled;Master;No;No;No;0;Off;No;No;None;48,1664;16,3888
180;Gais-2;Analogue;1298,375;1270,375;12,5;;;;;;;;88,5;88,5;Disabled;Master;No;No;No;0;Off;No;No;None;47,80513;13,11295
181;Hint-2;Analogue;1298,5;1270,5;12,5;;;;;;;;88,5;88,5;Disabled;Master;No;No;No;0;Off;No;No;None;47,97206;15,61039
182;Rang-1;Analogue;2401,9;2449,9;12,5;;;;;;;;88,5;88,5;Disabled;Master;No;No;No;0;Off;No;No;None;47,24298;11,18117
183;Wien-1;Analogue;2401,9;2449,9;12,5;;;;;;;;88,5;88,5;Disabled;Master;No;No;No;0;Off;No;No;None;48,16803;16,3454