Channel Number;Channel Name;Channel Type;Rx Frequency;Tx Frequency;Bandwidth (kHz);Colour Code;Timeslot;Contact;TG List;DMR ID;TS1_TA_Tx;TS2_TA_Tx ID;RX Tone;TX Tone;Squelch;Power;Rx Only;Zone Skip;All Skip;TOT;VOX;No Beep;No Eco;APRS;Latitude;Longitude
1;Braunau Stadt;Analogue;51,81;51,21;12,5;;;;;;;;88,5;88,5;Disabled;Master;No;No;No;0;Off;No;No;None;48,25152;13,03791
2;Jauerling;Analogue;51,9;51,3;12,5;;;;;;;;162,2;162,2;Disabled;Master;No;No;No;0;Off;No;No;None;48,33452;15,33768
3;Rangger Koepfl;Analogue;51,91;51,31;12,5;;;;;;;;88,5;77,0;Disabled;Master;No;No;No;0;Off;No;No;None;47,24298;11,18117
4;Giesshuebel;Analogue;145,5875;144,9875;12,5;;;;;;;;88,5;88,5;Disabled;Master;No;No;No;0;Off;No;No;None;48,09671;16,23893
5;Lichtenberg;Analogue;145,6;145,0;12,5;;;;;;;;88,5;88,5;Disabled;Master;No;No;No;0;Off;No;No;None;48,38515;14,25445
6;Schoeckl;Analogue;145,6;145,0;12,5;;;;;;;;103,5;103,5;Disabled;Master;No;No;No;0;Off;No;No;None;47,19885;15,46694
7;Patscherkofel;Analogue;145,6125;145,0125;12,5;;;;;;;;88,5;77,0;Disabled;Master;No;No;No;0;Off;No;No;None;47,20829;11,46093
8;Speiereck;Analogue;145,6125;145,0125;12,5;;;;;;;;88,5;88,5;Disabled;Master;No;No;No;0;Off;No;No;None;47,12703;13,62476
9;Laaerberg Turm;Analogue;145,625;145,025;12,5;;;;;;;;88,5;88,5;Disabled;Master;No;No;No;0;Off;No;No;None;48,15717;16,39672
10;Magdalensberg;Analogue;145,625;145,025;12,5;;;;;;;;88,5;88,5;Disabled;Master;No;No;No;0;Off;No;No;None;46,72805;14,42943
11;Nebelstein;Analogue;145,6375;145,0375;12,5;;;;;;;;88,5;88,5;Disabled;Master;No;No;No;0;Off;No;No;None;48,67282;14,77828
12;Goldeck;Analogue;145,65;145,05;12,5;;;;;;;;88,5;88,5;Disabled;Master;No;No;No;0;Off;No;No;None;46,76179;13,45725
13;Goldeck;Analogue;145,65;145,05;12,5;;;;;;;;88,5;88,5;Disabled;Master;No;No;No;0;Off;No;No;None;46,76179;13,45725
14;Kaiserkogel;Analogue;145,65;145,05;12,5;;;;;;;;88,5;88,5;Disabled;Master;No;No;No;0;Off;No;No;None;48,05979;15,53965
15;Kitzsteinhorn;Analogue;145,65;145,05;12,5;;;;;;;;88,5;88,5;Disabled;Master;No;No;No;0;Off;No;No;None;47,1881;12,68751
16;Rennfeld;Analogue;145,65;145,05;12,5;;;;;;;;88,5;103,5;Disabled;Master;No;No;No;0;Off;No;No;None;47,40554;15,35936
17;Vorderaelpele;Analogue;145,65;145,05;12,5;;;;;;;;88,5;88,5;Disabled;Master;No;No;No;0;Off;No;No;None;47,20918;9,59107
18;Gruenberg bei Silz;Analogue;145,6625;145,0625;12,5;;;;;;;;88,5;88,5;Disabled;Master;No;No;No;0;Off;No;No;None;47,28231;10,91478
19;Bruckerberg;Analogue;145,675;145,075;12,5;;;;;;;;88,5;88,5;Disabled;Master;No;No;No;0;Off;No;No;None;47,38176;11,87433
20;Planai;Analogue;145,675;145,075;12,5;;;;;;;;88,5;88,5;Disabled;Master;No;No;No;0;Off;No;No;None;47,36909;13,72622
21;Gaisberg;Analogue;145,6875;145,0875;12,5;;;;;;;;88,5;88,5;Disabled;Master;No;No;No;0;Off;No;No;None;47,80513;13,11295
22;Valluga;Analogue;145,6875;145,0875;12,5;;;;;;;;88,5;77,0;Disabled;Master;No;No;No;0;Off;No;No;None;47,15761;10,21305
23;Hahnenkamm;Analogue;145,7;145,1;12,5;;;;;;;;88,5;88,5;Disabled;Master;No;No;No;0;Off;No;No;None;47,47817;10,64163
24;Hochstein;Analogue;145,7;145,1;12,5;;;;;;;;88,5;88,5;Disabled;Master;No;No;No;0;Off;No;No;None;46,82166;12,70025
25;Klosterneuburgerhuette;Analogue;145,7;145,1;12,5;;;;;;;;88,5;88,5;Disabled;Master;No;No;No;0;Off;No;No;None;47,25505;14,34483
26;Sandl;Analogue;145,7;145,1;12,5;;;;;;;;88,5;162,2;Disabled;Master;No;No;No;0;Off;No;No;None;48,43338;15,47139
27;Krippenstein;Analogue;145,7125;145,1125;12,5;;;;;;;;88,5;88,5;Disabled;Master;No;No;No;0;Off;No;No;None;47,52429;13,69208
28;Hohe Wand;Analogue;145,725;145,125;12,5;;;;;;;;88,5;88,5;Disabled;Master;No;No;No;0;Off;No;No;None;47,8346;16,04605
29;Petzen;Analogue;145,7375;145,1375;12,5;;;;;;;;88,5;88,5;Disabled;Master;No;No;No;0;Off;No;No;None;46,51851;14,77299
30;Petzen;Digital;145,7375;145,1375;;1;2;None;None;None;Off;Off;;;;Master;No;No;No;0;Off;No;No;None;46,51851;14,77299
31;Exelberg;Analogue;145,75;145,15;12,5;;;;;;;;88,5;162,2;Disabled;Master;No;No;No;0;Off;No;No;None;48,24876;16,24405
32;Gruenberg;Analogue;145,75;145,15;12,5;;;;;;;;123,0;123,0;Disabled;Master;No;No;No;0;Off;No;No;None;47,89813;13,82198
33;Penkenjoch;Analogue;145,75;145,15;12,5;;;;;;;;88,5;88,5;Disabled;Master;No;No;No;0;Off;No;No;None;47,16867;11,8
34;Gerlitzen;Analogue;145,7625;145,1625;12,5;;;;;;;;88,5;88,5;Disabled;Master;No;No;No;0;Off;No;No;None;46,695;13,91417
35;Gernkogel;Analogue;145,7625;145,1625;12,5;;;;;;;;88,5;88,5;Disabled;Master;No;No;No;0;Off;No;No;None;47,30755;13,23822
36;Krahberg;Analogue;145,7625;145,1625;12,5;;;;;;;;88,5;77,0;Disabled;Master;No;No;No;0;Off;No;No;None;47,14592;10,62683
37;Brentenriegel;Analogue;145,775;145,175;12,5;;;;;;;;88,5;97,4;Disabled;Master;No;No;No;0;Off;No;No;None;47,65953;16,39059
38;Geiersberg;Analogue;145,775;145,175;12,5;;;;;;;;88,5;88,5;Disabled;Master;No;No;No;0;Off;No;No;None;48,20026;13,58142
39;Hohe Salve;Analogue;145,775;145,175;12,5;;;;;;;;88,5;88,5;Disabled;Master;No;No;No;0;Off;No;No;None;47,465;12,20417
40;Frauenstaffel;Analogue;145,7875;145,1875;12,5;;;;;;;;88,5;79,7;Disabled;Master;No;No;No;0;Off;No;No;None;48,79319;15,34991
41;Wurmkogel Lift;Analogue;145,7875;145,1875;12,5;;;;;;;;88,5;88,5;Disabled;Master;No;No;No;0;Off;No;No;None;46,88041;11,08384
42;Schoeckl;Digital;437,975;430,375;;1;2;None;None;None;Off;Off;;;;Master;No;No;No;0;Off;No;No;None;47,19885;15,46694
43;Klosterneuburgerhuette;Digital;438,075;430,475;;1;2;None;None;None;Off;Off;;;;Master;No;No;No;0;Off;No;No;None;47,25505;14,34483
44;Feuerkogel;Analogue;438,15;430,55;12,5;;;;;;;;123,0;123,0;Disabled;Master;No;No;No;0;Off;No;No;None;47,81588;13,72133
45;Hochkar;Digital;438,2;430,6;;1;2;None;None;None;Off;Off;;;;Master;No;No;No;0;Off;No;No;None;47,71083;14,90111
46;St. Bartholomae;Analogue;438,2;430,6;12,5;;;;;;;;103,5;103,5;Disabled;Master;No;No;No;0;Off;No;No;None;47,07115;15,25653
47;Ehrwald;Analogue;438,225;430,625;12,5;;;;;;;;88,5;136,5;Disabled;Master;No;No;No;0;Off;No;No;None;47,41245;10,91642
48;Hohe Wand;Analogue;438,225;430,625;12,5;;;;;;;;162,2;162,2;Disabled;Master;No;No;No;0;Off;No;No;None;47,8346;16,04605
49;Hohe Wand;Digital;438,225;430,625;;1;2;None;None;None;Off;Off;;;;Master;No;No;No;0;Off;No;No;None;47,8346;16,04605
50;Harschbichl;Digital;438,25;430,65;;1;2;None;None;None;Off;Off;;;;Master;No;No;No;0;Off;No;No;None;47,48446;12,42795
51;Mugl;Digital;438,25;430,65;;1;2;None;None;None;Off;Off;;;;Master;No;No;No;0;Off;No;No;None;47,3587;15,18808
52;Sternstein;Digital;438,25;430,65;;1;2;None;None;None;Off;Off;;;;Master;No;No;No;0;Off;No;No;None;48,55992;14,26901
53;Muttersberg;Digital;438,275;430,675;;1;2;None;None;None;Off;Off;;;;Master;No;No;No;0;Off;No;No;None;47,18058;9,82534
54;Vorderaelpele;Digital;438,2875;430,6875;;1;2;None;None;None;Off;Off;;;;Master;No;No;No;0;Off;No;No;None;47,20918;9,59107
55;Hainfelder Huette;Analogue;438,3;430,7;12,5;;;;;;;;88,5;88,5;Disabled;Master;No;No;No;0;Off;No;No;None;48,01935;15,7537
56;Hochstein;Analogue;438,3;430,7;12,5;;;;;;;;77,0;77,0;Disabled;Master;No;No;No;0;Off;No;No;None;46,82166;12,70025
57;Klippitztoerl;Analogue;438,3;430,7;12,5;;;;;;;;88,5;88,5;Disabled;Master;No;No;No;0;Off;No;No;None;46,93639;14,67506
58;Porrtower;Analogue;438,3125;430,7125;12,5;;;;;;;;162,2;162,2;Disabled;Master;No;No;No;0;Off;No;No;None;48,16796;16,38716
59;Donauturm;Digital;438,3375;430,7375;;1;2;None;None;None;Off;Off;;;;Master;No;No;No;0;Off;No;No;None;48,24025;16,41005
60;Sandl;Digital;438,35;430,75;;1;2;None;None;None;Off;Off;;;;Master;No;No;No;0;Off;No;No;None;48,43338;15,47139
61;Sonnenberg im Leithagebirge;Digital;438,3625;430,7625;;1;2;None;None;None;Off;Off;;;;Master;No;No;No;0;Off;No;No;None;47,87544;16,4759
62;Weiterner Strasse;Digital;438,375;430,775;;1;2;None;None;None;Off;Off;;;;Master;No;No;No;0;Off;No;No;None;48,22104;15,62219
63;Gaisberg;Analogue;438,4;430,8;12,5;;;;;;;;88,5;88,5;Disabled;Master;No;No;No;0;Off;No;No;None;47,80513;13,11295
64;Hohe Wand;Analogue;438,4;430,8;12,5;;;;;;;;88,5;162,2;Disabled;Master;No;No;No;0;Off;No;No;None;47,8346;16,04605
65;Hohe Wand;Digital;438,4;430,8;;1;2;None;None;None;Off;Off;;;;Master;No;No;No;0;Off;No;No;None;47,8346;16,04605
66;Innsbruck Brixner Strasse;Digital;438,4;430,8;;1;2;None;None;None;Off;Off;;;;Master;No;No;No;0;Off;No;No;None;47,26482;11,39865
67;Kuhberg/Egelsee;Digital;438,4;430,8;;1;2;None;None;None;Off;Off;;;;Master;No;No;No;0;Off;No;No;None;48,41759;15,58244
68;Jauerling;Digital;438,425;430,825;;1;2;None;None;None;Off;Off;;;;Master;No;No;No;0;Off;No;No;None;48,33452;15,33768
69;Klosterneuburgerhuette;Digital;438,425;430,825;;1;2;None;None;None;Off;Off;;;;Master;No;No;No;0;Off;No;No;None;47,25505;14,34483
70;Senftenbach/Wolfau;Analogue;438,425;430,825;12,5;;;;;;;;123,0;123,0;Disabled;Master;No;No;No;0;Off;No;No;None;48,27889;13,40661
71;Bruckerberg;Digital;438,45;430,85;;1;2;None;None;None;Off;Off;;;;Master;No;No;No;0;Off;No;No;None;47,38176;11,87433
72;Finkenstein/Neumuellern;Digital;438,45;430,85;;1;2;None;None;None;Off;Off;;;;Master;No;No;No;0;Off;No;No;None;46,56579;13,83948
73;Laaerberg Schule;Digital;438,45;430,85;;1;2;None;None;None;Off;Off;;;;Master;No;No;No;0;Off;No;No;None;48,15508;16,39578
74;Hard;Digital;438,4625;430,8625;;1;2;None;None;None;Off;Off;;;;Master;No;No;No;0;Off;No;No;None;47,48602;9,69444
75;Hermannskogel;Analogue;438,475;430,875;12,5;;;;;;;;162,2;162,2;Disabled;Master;No;No;No;0;Off;No;No;None;48,27042;16,29355
76;Lichtenberg;Digital;438,475;430,875;;1;2;None;None;None;Off;Off;;;;Master;No;No;No;0;Off;No;No;None;48,38515;14,25445
77;Weinbergerhaus;Digital;438,475;430,875;;1;2;None;None;None;Off;Off;;;;Master;No;No;No;0;Off;No;No;None;47,57772;12,20958
78;Bisamberg;Digital;438,5;430,9;;1;2;None;None;None;Off;Off;;;;Master;No;No;No;0;Off;No;No;None;48,31065;16,38278
79;Fronberg;Digital;438,5;430,9;;1;2;None;None;None;Off;Off;;;;Master;No;No;No;0;Off;No;No;None;48,03663;15,43243
80;Hollbruck;Analogue;438,5;430,9;12,5;;;;;;;;88,5;77,0;Disabled;Master;No;No;No;0;Off;No;No;None;46,73872;12,45378
81;Karren;Digital;438,5;430,9;;1;2;None;None;None;Off;Off;;;;Master;No;No;No;0;Off;No;No;None;47,38803;9,75084
82;Krahberg;Digital;438,5;430,9;;1;2;None;None;None;Off;Off;;;;Master;No;No;No;0;Off;No;No;None;47,14592;10,62683
83;Krippenstein;Digital;438,5;430,9;;1;2;None;None;None;Off;Off;;;;Master;No;No;No;0;Off;No;No;None;47,52429;13,69208
84;Petzen;Digital;438,5;430,9;;1;2;None;None;None;Off;Off;;;;Master;No;No;No;0;Off;No;No;None;46,51851;14,77299
85;Gebhartsberg;Analogue;438,525;430,925;12,5;;;;;;;;85,4;85,4;Disabled;Master;No;No;No;0;Off;No;No;None;47,49003;9,74761
86;Kindberg;Analogue;438,525;430,925;12,5;;;;;;;;88,5;88,5;Disabled;Master;No;No;No;0;Off;No;No;None;47,50585;15,44903
87;Kindberg;Digital;438,525;430,925;;1;2;None;None;None;Off;Off;;;;Master;No;No;No;0;Off;No;No;None;47,50585;15,44903
88;Brentenriegel;Digital;438,55;430,95;;1;2;None;None;None;Off;Off;;;;Master;No;No;No;0;Off;No;No;None;47,65953;16,39059
89;Gaisberg;Digital;438,55;430,95;;1;2;None;None;None;Off;Off;;;;Master;No;No;No;0;Off;No;No;None;47,80513;13,11295
90;Sonntagberg;Digital;438,55;430,95;;1;2;None;None;None;Off;Off;;;;Master;No;No;No;0;Off;No;No;None;47,99654;14,76447
91;Villach LKH;Analogue;438,55;430,95;12,5;;;;;;;;88,5;88,5;Disabled;Master;No;No;No;0;Off;No;No;None;46,61612;13,85777
92;Breitenstein;Analogue;438,575;430,975;12,5;;;;;;;;123,0;123,0;Disabled;Master;No;No;No;0;Off;No;No;None;48,4153;14,27429
93;Magdalensberg;Analogue;438,575;430,975;12,5;;;;;;;;88,5;88,5;Disabled;Master;No;No;No;0;Off;No;No;None;46,72805;14,42943
94;Moenichkirchen;Digital;438,575;430,975;;1;2;None;None;None;Off;Off;;;;Master;No;No;No;0;Off;No;No;None;47,5107;16,03767
95;Jauerling;Analogue;438,6;431,0;12,5;;;;;;;;162,2;162,2;Disabled;Master;No;No;No;0;Off;No;No;None;48,33452;15,33768
96;Pyramidenkogel;Digital;438,6;431,0;;1;2;None;None;None;Off;Off;;;;Master;No;No;No;0;Off;No;No;None;46,60891;14,14479
97;Schoeckl;Digital;438,6;431,0;;1;2;None;None;None;Off;Off;;;;Master;No;No;No;0;Off;No;No;None;47,19885;15,46694
98;Weinbergerhaus;Analogue;438,6;431,0;12,5;;;;;;;;88,5;77,0;Disabled;Master;No;No;No;0;Off;No;No;None;47,57772;12,20958
99;Nebelstein;Digital;438,6125;431,0125;;1;2;None;None;None;Off;Off;;;;Master;No;No;No;0;Off;No;No;None;48,67282;14,77828
100;Iselsberg-Stronach;Analogue;438,625;431,025;12,5;;;;;;;;88,5;88,5;Disabled;Master;No;No;No;0;Off;No;No;None;46,83869;12,84436
101;Kammberg;Digital;438,625;431,025;;1;2;None;None;None;Off;Off;;;;Master;No;No;No;0;Off;No;No;None;47,48381;12,58965
102;Karren;Analogue;438,625;431,025;12,5;;;;;;;;85,4;85,4;Disabled;Master;No;No;No;0;Off;No;No;None;47,38803;9,75084
103;Stuhleck;Analogue;438,625;431,025;12,5;;;;;;;;88,5;88,5;Disabled;Master;No;No;No;0;Off;No;No;None;47,57417;15,79
104;Viehart;Digital;438,625;431,025;;1;2;None;None;None;Off;Off;;;;Master;No;No;No;0;Off;No;No;None;48,18998;14,52092
105;Laaerberg Turm;Analogue;438,65;431,05;12,5;;;;;;;;88,5;88,5;Disabled;Master;No;No;No;0;Off;No;No;None;48,15717;16,39672
106;Lichtenberg;Analogue;438,65;431,05;12,5;;;;;;;;88,5;88,5;Disabled;Master;No;No;No;0;Off;No;No;None;48,38515;14,25445
107;Rossegger Str/LWZ;Analogue;438,65;431,05;12,5;;;;;;;;88,5;88,5;Disabled;Master;No;No;No;0;Off;No;No;None;46,61189;14,29801
108;Seegrube;Analogue;438,65;431,05;12,5;;;;;;;;88,5;77,0;Disabled;Master;No;No;No;0;Off;No;No;None;47,30557;11,37786
109;Exelberg;Digital;438,675;431,075;;1;2;None;None;None;Off;Off;;;;Master;No;No;No;0;Off;No;No;None;48,24876;16,24405
110;Klosterneuburgerhuette;Analogue;438,675;431,075;12,5;;;;;;;;88,5;88,5;Disabled;Master;No;No;No;0;Off;No;No;None;47,25505;14,34483
111;Hinteralm;Analogue;438,7;431,1;12,5;;;;;;;;88,5;162,2;Disabled;Master;No;No;No;0;Off;No;No;None;47,97206;15,61039
112;Hinteralm;Digital;438,7;431,1;;1;2;None;None;None;Off;Off;;;;Master;No;No;No;0;Off;No;No;None;47,97206;15,61039
113;Hunerkogel;Analogue;438,725;431,125;12,5;;;;;;;;88,5;88,5;Disabled;Master;No;No;No;0;Off;No;No;None;47,46794;13,62624
114;Kleinhardersdorf;Digital;438,725;431,125;;1;2;None;None;None;Off;Off;;;;Master;No;No;No;0;Off;No;No;None;48,66351;16,59337
115;Sonnenberg im Leithagebirge;Analogue;438,725;431,125;12,5;;;;;;;;88,5;97,4;Disabled;Master;No;No;No;0;Off;No;No;None;47,87544;16,4759
116;Damberg;Analogue;438,75;431,15;12,5;;;;;;;;88,5;88,5;Disabled;Master;No;No;No;0;Off;No;No;None;48,00736;14,45216
117;Hohe Wand;Analogue;438,75;431,15;12,5;;;;;;;;88,5;88,5;Disabled;Master;No;No;No;0;Off;No;No;None;47,8346;16,04605
118;Ungerdorf;Analogue;438,75;431,15;12,5;;;;;;;;88,5;88,5;Disabled;Master;No;No;No;0;Off;No;No;None;47,0938;15,69455
119;Grambach;Analogue;438,775;431,175;12,5;;;;;;;;88,5;88,5;Disabled;Master;No;No;No;0;Off;No;No;None;47,00617;15,4962
120;Linz Froschberg;Analogue;438,775;431,175;12,5;;;;;;;;88,5;88,5;Disabled;Master;No;No;No;0;Off;No;No;None;48,28849;14,27855
121;Sandl;Analogue;438,775;431,175;12,5;;;;;;;;88,5;162,2;Disabled;Master;No;No;No;0;Off;No;No;None;48,43338;15,47139
122;Buschberg;Analogue;438,8;431,2;12,5;;;;;;;;88,5;88,5;Disabled;Master;No;No;No;0;Off;No;No;None;48,57704;16,39555
123;Gruenberg;Analogue;438,8;431,2;12,5;;;;;;;;123,0;123,0;Disabled;Master;No;No;No;0;Off;No;No;None;47,89813;13,82198
124;Gruenberg;Digital;438,8;431,2;;1;2;None;None;None;Off;Off;;;;Master;No;No;No;0;Off;No;No;None;47,89813;13,82198
125;Zirbitzkogel;Analogue;438,8;431,2;12,5;;;;;;;;88,5;88,5;Disabled;Master;No;No;No;0;Off;No;No;None;47,06347;14,5673
126;Duenserberg;Analogue;438,825;431,225;12,5;;;;;;;;85,4;85,4;Disabled;Master;No;No;No;0;Off;No;No;None;47,22903;9,73779
127;Hochkoenig Matrashaus;Analogue;438,825;431,225;12,5;;;;;;;;88,5;88,5;Disabled;Master;No;No;No;0;Off;No;No;None;47,42026;13,06239
128;Wienerberg;Digital;438,825;431,225;;1;2;None;None;None;Off;Off;;;;Master;No;No;No;0;Off;No;No;None;48,16803;16,3454
129;Hutwisch;Analogue;438,8375;431,2375;12,5;;;;;;;;88,5;97,4;Disabled;Master;No;No;No;0;Off;No;No;None;47,46315;16,22183
130;Hochkogel;Analogue;438,85;431,25;12,5;;;;;;;;88,5;88,5;Disabled;Master;No;No;No;0;Off;No;No;None;48,03428;14,95117
131;Magdalensberg;Digital;438,85;431,25;;1;2;None;None;None;Off;Off;;;;Master;No;No;No;0;Off;No;No;None;46,72805;14,42943
132;Hochstein;Digital;438,875;431,275;;1;2;None;None;None;Off;Off;;;;Master;No;No;No;0;Off;No;No;None;46,82166;12,70025
133;Nebelstein;Analogue;438,875;431,275;12,5;;;;;;;;88,5;88,5;Disabled;Master;No;No;No;0;Off;No;No;None;48,67282;14,77828
134;Schoeckl;Analogue;438,875;431,275;12,5;;;;;;;;103,5;103,5;Disabled;Master;No;No;No;0;Off;No;No;None;47,19885;15,46694
135;Schoenjoechl;Analogue;438,875;431,275;12,5;;;;;;;;88,5;88,5;Disabled;Master;No;No;No;0;Off;No;No;None;47,07724;10,59837
136;Dobratsch;Analogue;438,9;431,3;12,5;;;;;;;;88,5;88,5;Disabled;Master;No;No;No;0;Off;No;No;None;46,6034;13,67099
137;Dobratsch;Digital;438,9;431,3;;1;2;None;None;None;Off;Off;;;;Master;No;No;No;0;Off;No;No;None;46,6034;13,67099
138;Gallzein Kogelmoos;Analogue;438,9;431,3;12,5;;;;;;;;88,5;88,5;Disabled;Master;No;No;No;0;Off;No;No;None;47,357;11,755
139;Sonntagberg;Analogue;438,9;431,3;12,5;;;;;;;;88,5;88,5;Disabled;Master;No;No;No;0;Off;No;No;None;47,99654;14,76447
140;Stradner Kogel;Digital;438,9125;431,3125;;1;2;None;None;None;Off;Off;;;;Master;No;No;No;0;Off;No;No;None;46,84522;15,93198
141;Gefrorene Wand;Analogue;438,925;431,325;12,5;;;;;;;;77,0;77,0;Disabled;Master;No;No;No;0;Off;No;No;None;47,06498;11,6792
142;Gefrorene Wand;Digital;438,925;431,325;;1;2;None;None;None;Off;Off;;;;Master;No;No;No;0;Off;No;No;None;47,06498;11,6792
143;Rennfeld;Digital;438,925;431,325;;1;2;None;None;None;Off;Off;;;;Master;No;No;No;0;Off;No;No;None;47,40554;15,35936
144;Rittmannsberg;Analogue;438,925;431,325;12,5;;;;;;;;88,5;88,5;Disabled;Master;No;No;No;0;Off;No;No;None;48,17465;14,53197
145;Kahlenberg;Analogue;438,95;431,35;12,5;;;;;;;;162,2;162,2;Disabled;Master;No;No;No;0;Off;No;No;None;48,27614;16,33322
146;Pfarrkirchen;Analogue;438,95;431,35;12,5;;;;;;;;88,5;88,5;Disabled;Master;No;No;No;0;Off;No;No;None;48,50287;13,82562
147;St. Georgen am Laengsee;Digital;438,95;431,35;;1;2;None;None;None;Off;Off;;;;Master;No;No;No;0;Off;No;No;None;46,80088;14,43904
148;Ahorn;Analogue;438,975;431,375;12,5;;;;;;;;88,5;77,0;Disabled;Master;No;No;No;0;Off;No;No;None;47,13717;11,86928
149;Jochgrabenberg;Analogue;438,975;431,375;12,5;;;;;;;;162,2;162,2;Disabled;Master;No;No;No;0;Off;No;No;None;48,15307;16,01629
150;Speiereck;Analogue;438,975;431,375;12,5;;;;;;;;88,5;88,5;Disabled;Master;No;No;No;0;Off;No;No;None;47,12703;13,62476
151;Sternstein;Analogue;438,975;431,375;12,5;;;;;;;;123,0;123,0;Disabled;Master;No;No;No;0;Off;No;No;None;48,55992;14,26901
152;Stradner Kogel;Analogue;438,975;431,375;12,5;;;;;;;;88,5;88,5;Disabled;Master;No;No;No;0;Off;No;No;None;46,84522;15,93198
153;Gaberl/Wiedneralm;Analogue;439,0;431,4;12,5;;;;;;;;88,5;88,5;Disabled;Master;No;No;No;0;Off;No;No;None;47,11856;14,93233
154;Goldeck;Analogue;439,0;431,4;12,5;;;;;;;;88,5;88,5;Disabled;Master;No;No;No;0;Off;No;No;None;46,76179;13,45725
155;Mittersill;Digital;439,0;431,4;;1;2;None;None;None;Off;Off;;;;Master;No;No;No;0;Off;No;No;None;47,28783;12,47728
156;Satzberg;Analogue;439,0;431,4;12,5;;;;;;;;162,2;162,2;Disabled;Master;No;No;No;0;Off;No;No;None;48,21527;16,26133
157;Telfs Arzbergstrasse;Analogue;439,0;431,4;12,5;;;;;;;;77,0;77,0;Disabled;Master;No;No;No;0;Off;No;No;None;47,31805;11,07876
158;Frauenstaffel;Analogue;439,025;431,425;12,5;;;;;;;;88,5;136,5;Disabled;Master;No;No;No;0;Off;No;No;None;48,79319;15,34991
159;Giesshuebel;Analogue;439,025;431,425;12,5;;;;;;;;88,5;88,5;Disabled;Master;No;No;No;0;Off;No;No;None;48,09671;16,23893
160;Harschbichl;Analogue;439,025;431,425;12,5;;;;;;;;88,5;77,0;Disabled;Master;No;No;No;0;Off;No;No;None;47,48446;12,42795
161;Gerlitzen;Analogue;439,05;431,45;12,5;;;;;;;;88,5;88,5;Disabled;Master;No;No;No;0;Off;No;No;None;46,695;13,91417
162;Pichling;Analogue;439,05;431,45;12,5;;;;;;;;88,5;88,5;Disabled;Master;No;No;No;0;Off;No;No;None;46,91079;15,2744
163;Rangger Koepfl;Analogue;439,05;431,45;12,5;;;;;;;;88,5;88,5;Disabled;Master;No;No;No;0;Off;No;No;None;47,24298;11,18117
164;Troppberg;Analogue;439,05;431,45;12,5;;;;;;;;88,5;88,5;Disabled;Master;No;No;No;0;Off;No;No;None;48,22399;16,11008
165;Hochstein;Analogue;439,075;431,475;12,5;;;;;;;;88,5;88,5;Disabled;Master;No;No;No;0;Off;No;No;None;46,82166;12,70025
166;Hochwechsel;Analogue;439,075;431,475;12,5;;;;;;;;88,5;88,5;Disabled;Master;No;No;No;0;Off;No;No;None;47,53045;15,91452
167;Hochwechsel;Digital;439,075;431,475;;1;2;None;None;None;Off;Off;;;;Master;No;No;No;0;Off;No;No;None;47,53045;15,91452
168;Rangger Koepfl;Digital;439,075;431,475;;1;2;None;None;None;Off;Off;;;;Master;No;No;No;0;Off;No;No;None;47,24298;11,18117
169;Hoher Sonnblick;Digital;439,0875;431,4875;;1;2;None;None;None;Off;Off;;;;Master;No;No;No;0;Off;No;No;None;47,05397;12,95719
170;Petzen;Analogue;439,0875;431,4875;12,5;;;;;;;;88,5;88,5;Disabled;Master;No;No;No;0;Off;No;No;None;46,51851;14,77299
171;Eisenerzer Reichenstein;Analogue;439,1;431,5;12,5;;;;;;;;88,5;103,5;Disabled;Master;No;No;No;0;Off;No;No;None;47,50084;14,93229
172;Obtarrenz;Digital;439,1;431,5;;1;2;None;None;None;Off;Off;;;;Master;No;No;No;0;Off;No;No;None;47,27924;10,76729
173;Rangger Koepfl;Analogue;1259,2;1294,2;12,5;;;;;;;;88,5;88,5;Disabled;Master;No;No;No;0;Off;No;No;None;47,24298;11,18117
174;Dobl;Analogue;1298,05;1270,05;12,5;;;;;;;;88,5;88,5;Disabled;Master;No;No;No;0;Off;No;No;None;46,94991;15,37989
175;Dobratsch;Analogue;1298,15;1270,15;12,5;;;;;;;;88,5;88,5;Disabled;Master;No;No;No;0;Off;No;No;None;46,6034;13,67099
176;Schoeckl;Analogue;1298,2;1270,2;12,5;;;;;;;;88,5;88,5;Disabled;Master;No;No;No;0;Off;No;No;None;47,19885;15,46694
177;Hochwechsel;Analogue;1298,225;1270,225;12,5;;;;;;;;88,5;88,5;Disabled;Master;No;No;No;0;Off;No;No;None;47,53045;15,91452
178;Wienerberg;Analogue;1298,25;1270,25;12,5;;;;;;;;88,5;88,5;Disabled;Master;No;No;No;0;Off;No;No;None;48,16803;16,3454
179;Laaerberg Wohntower;Analogue;1298,275;1270,275;12,5;;;;;;;;88,5;88,5;Disabled;Master;No;No;No;0;Off;No;No;None;48,1664;16,3888
180;Gaisberg;Analogue;1298,375;1270,375;12,5;;;;;;;;88,5;88,5;Disabled;Master;No;No;No;0;Off;No;No;None;47,80513;13,11295
181;Hinteralm;Analogue;1298,5;1270,5;12,5;;;;;;;;88,5;88,5;Disabled;Master;No;No;No;0;Off;No;No;None;47,97206;15,61039
182;Rangger Koepfl;Analogue;2401,9;2449,9;12,5;;;;;;;;88,5;88,5;Disabled;Master;No;No;No;0;Off;No;No;None;47,24298;11,18117
183;Wienerberg;Analogue;2401,9;2449,9;12,5;;;;;;;;88,5;88,5;Disabled;Master;No;No;No;0;Off;No;No;None;48,16803;16,3454